#FIG 3.2  Produced by xfig version 3.2.6a
Landscape
Center
Metric
A4
100.00
Single
-2
1200 2
6 945 2520 1305 2880
1 3 0 1 0 7 50 -1 -1 4.000 1 0.0000 1125 2700 162 162 1125 2700 1260 2610
2 1 0 2 0 7 50 -1 -1 6.000 0 0 -1 0 0 2
	 1260 2565 990 2835
2 1 0 2 0 7 50 -1 -1 6.000 0 0 -1 0 0 2
	 1035 2565 1260 2835
-6
2 1 0 1 0 7 50 -1 -1 4.000 0 0 -1 0 0 2
	 -540 5400 4950 5400
2 1 0 1 0 7 50 -1 -1 4.000 0 0 -1 0 0 2
	 -225 5400 -450 5670
2 1 0 1 0 7 50 -1 -1 4.000 0 0 -1 0 0 2
	 45 5400 -180 5670
2 1 0 1 0 7 50 -1 -1 4.000 0 0 -1 0 0 2
	 315 5400 90 5670
2 1 0 1 0 7 50 -1 -1 4.000 0 0 -1 0 0 2
	 4230 5400 4005 5670
2 1 0 1 0 7 50 -1 -1 4.000 0 0 -1 0 0 2
	 4500 5400 4275 5670
2 1 0 1 0 7 50 -1 -1 4.000 0 0 -1 0 0 2
	 4770 5400 4545 5670
2 1 0 3 0 7 50 -1 -1 8.000 0 0 -1 0 0 3
	 6300 2565 12420 2970 6300 5400
2 1 0 1 0 7 50 -1 -1 4.000 0 0 -1 0 0 2
	 6300 2250 6300 2880
2 1 0 1 0 7 50 -1 -1 4.000 0 0 -1 0 0 2
	 6300 5130 6300 5670
2 1 0 3 0 7 50 -1 -1 8.000 0 0 -1 0 0 3
	 0 5400 2250 -45 4500 5400
2 1 0 2 0 7 50 -1 -1 6.000 0 0 -1 1 0 2
	1 1 2.00 120.00 240.00
	 9360 1755 9360 2745
2 1 0 1 0 7 50 -1 -1 4.000 0 0 -1 0 0 2
	 0 5850 0 6570
2 1 0 1 0 7 50 -1 -1 4.000 0 0 -1 0 0 2
	 2250 5940 2250 6660
2 1 0 1 0 7 50 -1 -1 4.000 0 0 -1 0 0 2
	 4500 5940 4500 6660
2 1 0 1 0 7 50 -1 -1 4.000 0 0 -1 0 0 2
	 4365 0 5310 0
2 1 0 1 0 7 50 -1 -1 4.000 0 0 -1 0 0 2
	 4410 2700 5355 2700
2 1 0 1 0 7 50 -1 -1 4.000 0 0 -1 0 0 2
	 4410 5400 5355 5400
2 1 0 1 0 7 50 -1 -1 4.000 0 0 -1 1 1 2
	1 1 1.00 60.00 120.00
	1 1 1.00 60.00 120.00
	 0 6390 2250 6390
2 1 0 1 0 7 50 -1 -1 4.000 0 0 -1 1 1 2
	1 1 1.00 60.00 120.00
	1 1 1.00 60.00 120.00
	 2250 6390 4500 6390
2 1 0 1 0 7 50 -1 -1 4.000 0 0 -1 1 1 2
	1 1 1.00 60.00 120.00
	1 1 1.00 60.00 120.00
	 5175 5445 5175 2700
2 1 0 1 0 7 50 -1 -1 4.000 0 0 -1 1 1 2
	1 1 1.00 60.00 120.00
	1 1 1.00 60.00 120.00
	 5175 2700 5175 0
2 1 0 3 0 7 50 -1 -1 8.000 0 0 -1 0 0 3
	 13362 2476 19482 2881 13362 5311
2 1 0 1 0 7 50 -1 -1 0.000 0 0 -1 0 0 5
	 13365 2475 13365 1305 15930 2925 19485 2745 19485 2880
2 1 0 1 0 7 50 -1 -1 4.000 0 0 -1 0 0 4
	 13365 5310 13365 4365 19440 3060 19440 2880
2 1 0 3 0 7 50 -1 -1 8.000 0 0 -1 0 0 3
	 2484 8167 8604 8572 2484 11002
2 1 0 1 0 7 50 -1 -1 4.000 0 0 -1 0 0 4
	 2475 8145 2475 8415 8595 8775 8595 8550
2 1 0 1 0 7 50 -1 -1 4.000 0 0 -1 0 0 4
	 2520 10980 2475 11070 8595 8640 8595 8550
2 1 0 3 0 7 50 -1 -1 8.000 0 0 -1 0 0 3
	 10003 8134 16123 8539 10003 10969
2 1 0 1 0 7 50 -1 -1 4.000 0 0 -1 0 0 6
	 9990 8100 9990 7515 12780 7695 12780 8505 16110 8730 16110 8550
2 1 0 1 0 7 50 -1 -1 4.000 0 0 -1 0 0 4
	 10035 10980 10035 10755 16155 8325 16110 8550
2 1 0 3 0 7 50 -1 -1 8.000 0 0 -1 1 0 2
	2 0 3.00 180.00 360.00
	 10755 9585 11295 8910
2 1 0 3 0 7 50 -1 -1 8.000 0 0 -1 1 0 2
	2 0 3.00 180.00 360.00
	 13410 11070 12960 10125
4 0 0 50 -1 0 24 0.0000 4 270 210 2520 270 3\001
4 0 0 50 -1 0 24 0.0000 4 270 210 6030 5895 2\001
4 0 0 50 -1 0 24 0.0000 4 270 210 5895 3105 1\001
4 0 0 50 -1 0 24 0.0000 4 270 210 12015 3555 3\001
4 0 0 50 -1 0 24 0.0000 4 270 210 270 5895 1\001
4 0 0 50 -1 0 24 0.0000 4 270 210 3690 5895 2\001
4 0 0 50 -1 0 24 0.0000 4 285 210 1080 6300 5\001
4 0 0 50 -1 0 24 0.0000 4 285 210 3195 6300 5\001
4 0 0 50 -1 0 24 1.5708 4 270 210 5130 1485 6\001
4 0 0 50 -1 0 24 1.5708 4 270 210 5130 4050 6\001
4 0 0 50 -1 0 24 0.0000 4 270 735 13635 1485 4.14\001
4 0 0 50 -1 0 24 0.0000 4 270 735 15255 3375 1.01\001
4 0 0 50 -1 0 24 0.0000 4 270 735 18900 2475 0.36\001
4 0 0 50 -1 0 24 0.0000 4 270 735 18720 3645 0.60\001
4 0 0 50 -1 0 24 0.0000 4 270 735 13320 4275 2.74\001
4 0 0 50 -1 0 24 0.0000 4 270 375 4995 7920 T:\001
4 0 0 50 -1 0 24 0.0000 4 270 1080 2385 8910 -0.488\001
4 0 0 50 -1 0 24 0.0000 4 270 1080 2925 11115 -0.088\001
4 0 0 50 -1 0 24 0.0000 4 285 945 10080 7380 0.789\001
4 0 0 50 -1 0 24 0.0000 4 270 1080 12780 8955 -0.211\001
4 0 0 50 -1 0 24 0.0000 4 270 945 10665 10260 0.211\001
4 0 0 50 -1 0 24 0.0000 4 270 420 12330 7335 V:\001
4 0 0 50 -1 0 24 0.0000 4 270 480 15930 1845 M:\001
4 0 0 50 -1 0 24 0.0000 4 270 210 9405 2070 1\001
4 0 0 50 -1 0 24 0.0000 4 270 210 1305 2970 1\001
