#FIG 3.2  Produced by xfig version 3.2.6a
Landscape
Center
Metric
A4
100.00
Single
-2
1200 2
6 945 2520 1305 2880
1 3 0 1 0 7 50 -1 -1 4.000 1 0.0000 1125 2700 162 162 1125 2700 1260 2610
2 1 0 2 0 7 50 -1 -1 6.000 0 0 -1 0 0 2
	 1260 2565 990 2835
2 1 0 2 0 7 50 -1 -1 6.000 0 0 -1 0 0 2
	 1035 2565 1260 2835
-6
2 1 0 1 0 7 50 -1 -1 4.000 0 0 -1 0 0 2
	 -540 5400 4950 5400
2 1 0 1 0 7 50 -1 -1 4.000 0 0 -1 0 0 2
	 -225 5400 -450 5670
2 1 0 1 0 7 50 -1 -1 4.000 0 0 -1 0 0 2
	 45 5400 -180 5670
2 1 0 1 0 7 50 -1 -1 4.000 0 0 -1 0 0 2
	 315 5400 90 5670
2 1 0 1 0 7 50 -1 -1 4.000 0 0 -1 0 0 2
	 4230 5400 4005 5670
2 1 0 1 0 7 50 -1 -1 4.000 0 0 -1 0 0 2
	 4500 5400 4275 5670
2 1 0 1 0 7 50 -1 -1 4.000 0 0 -1 0 0 2
	 4770 5400 4545 5670
2 1 0 3 0 7 50 -1 -1 8.000 0 0 -1 0 0 3
	 6300 2565 12420 2970 6300 5400
2 1 0 1 0 7 50 -1 -1 4.000 0 0 -1 0 0 2
	 6300 2250 6300 2880
2 1 0 1 0 7 50 -1 -1 4.000 0 0 -1 0 0 2
	 6300 5130 6300 5670
2 1 0 3 0 7 50 -1 -1 8.000 0 0 -1 0 0 3
	 0 5400 2250 -45 4500 5400
2 1 0 2 0 7 50 -1 -1 6.000 0 0 -1 1 0 2
	1 1 2.00 120.00 240.00
	 9360 1755 9360 2745
2 1 0 1 0 7 50 -1 -1 4.000 0 0 -1 0 0 2
	 0 5850 0 6570
2 1 0 1 0 7 50 -1 -1 4.000 0 0 -1 0 0 2
	 2250 5940 2250 6660
2 1 0 1 0 7 50 -1 -1 4.000 0 0 -1 0 0 2
	 4500 5940 4500 6660
2 1 0 1 0 7 50 -1 -1 4.000 0 0 -1 0 0 2
	 4365 0 5310 0
2 1 0 1 0 7 50 -1 -1 4.000 0 0 -1 0 0 2
	 4410 2700 5355 2700
2 1 0 1 0 7 50 -1 -1 4.000 0 0 -1 0 0 2
	 4410 5400 5355 5400
2 1 0 1 0 7 50 -1 -1 4.000 0 0 -1 1 1 2
	1 1 1.00 60.00 120.00
	1 1 1.00 60.00 120.00
	 0 6390 2250 6390
2 1 0 1 0 7 50 -1 -1 4.000 0 0 -1 1 1 2
	1 1 1.00 60.00 120.00
	1 1 1.00 60.00 120.00
	 2250 6390 4500 6390
2 1 0 1 0 7 50 -1 -1 4.000 0 0 -1 1 1 2
	1 1 1.00 60.00 120.00
	1 1 1.00 60.00 120.00
	 5175 5445 5175 2700
2 1 0 1 0 7 50 -1 -1 4.000 0 0 -1 1 1 2
	1 1 1.00 60.00 120.00
	1 1 1.00 60.00 120.00
	 5175 2700 5175 0
4 0 0 50 -1 0 24 0.0000 4 270 210 2520 270 3\001
4 0 0 50 -1 0 24 0.0000 4 270 210 6030 5895 2\001
4 0 0 50 -1 0 24 0.0000 4 270 210 5895 3105 1\001
4 0 0 50 -1 0 24 0.0000 4 270 210 12015 3555 3\001
4 0 0 50 -1 0 24 0.0000 4 270 210 270 5895 1\001
4 0 0 50 -1 0 24 0.0000 4 270 210 3690 5895 2\001
4 0 0 50 -1 0 24 0.0000 4 285 210 1080 6300 5\001
4 0 0 50 -1 0 24 0.0000 4 285 210 3195 6300 5\001
4 0 0 50 -1 0 24 1.5708 4 270 210 5130 1485 6\001
4 0 0 50 -1 0 24 1.5708 4 270 210 5130 4050 6\001
4 0 0 50 -1 0 24 0.0000 4 270 210 9450 2295 1\001
4 0 0 50 -1 0 24 0.0000 4 270 210 1395 3015 1\001
