#FIG 3.2  Produced by xfig version 3.2.6a
Landscape
Center
Metric
A4
100.00
Single
-2
1200 2
6 -900 10170 -90 10530
4 0 0 50 -1 32 24 0.0000 4 300 240 -900 10440 h\001
4 0 0 50 -1 0 24 0.0000 4 270 300 -720 10440 V\001
4 0 0 50 -1 0 18 0.0000 4 195 195 -495 10530 B\001
4 0 0 50 -1 0 18 0.0000 4 195 225 -315 10530 A\001
-6
6 8865 8595 12735 8910
1 3 0 1 0 7 50 -1 -1 4.000 1 0.0000 11700 8685 64 64 11700 8685 11745 8640
2 1 0 3 0 7 50 -1 -1 8.000 0 0 -1 0 0 2
	 9000 8685 11655 8685
2 1 0 3 0 7 50 -1 -1 8.000 0 0 -1 0 0 2
	 11790 8685 12600 8685
2 3 0 1 0 7 50 -1 -1 4.000 0 0 -1 0 0 4
	 9000 8685 8865 8910 9135 8910 9000 8685
2 3 0 1 0 7 50 -1 -1 4.000 0 0 -1 0 0 4
	 10665 8685 10530 8910 10800 8910 10665 8685
2 3 0 1 0 7 50 -1 -1 4.000 0 0 -1 0 0 4
	 12600 8685 12465 8910 12735 8910 12600 8685
-6
6 8865 9810 12735 10125
1 3 0 1 0 7 50 -1 -1 4.000 1 0.0000 11700 9900 64 64 11700 9900 11745 9855
2 1 0 3 0 7 50 -1 -1 8.000 0 0 -1 0 0 2
	 9000 9900 11655 9900
2 1 0 3 0 7 50 -1 -1 8.000 0 0 -1 0 0 2
	 11790 9900 12600 9900
2 3 0 1 0 7 50 -1 -1 4.000 0 0 -1 0 0 4
	 9000 9900 8865 10125 9135 10125 9000 9900
2 3 0 1 0 7 50 -1 -1 4.000 0 0 -1 0 0 4
	 10665 9900 10530 10125 10800 10125 10665 9900
2 3 0 1 0 7 50 -1 -1 4.000 0 0 -1 0 0 4
	 12600 9900 12465 10125 12735 10125 12600 9900
-6
6 8910 11970 12780 12285
1 3 0 1 0 7 50 -1 -1 4.000 1 0.0000 11745 12060 64 64 11745 12060 11790 12015
2 1 0 3 0 7 50 -1 -1 8.000 0 0 -1 0 0 2
	 9045 12060 11700 12060
2 1 0 3 0 7 50 -1 -1 8.000 0 0 -1 0 0 2
	 11835 12060 12645 12060
2 3 0 1 0 7 50 -1 -1 4.000 0 0 -1 0 0 4
	 9045 12060 8910 12285 9180 12285 9045 12060
2 3 0 1 0 7 50 -1 -1 4.000 0 0 -1 0 0 4
	 10710 12060 10575 12285 10845 12285 10710 12060
2 3 0 1 0 7 50 -1 -1 4.000 0 0 -1 0 0 4
	 12645 12060 12510 12285 12780 12285 12645 12060
-6
1 3 0 1 0 7 50 -1 -1 4.000 1 0.0000 5355 1800 90 90 5355 1800 5355 1710
2 1 0 3 0 7 50 -1 -1 0.000 0 0 -1 0 0 2
	 0 1800 5310 1800
2 1 0 3 0 7 50 -1 -1 0.000 0 0 -1 0 0 2
	 5490 1800 8100 1800
2 3 0 1 0 7 50 -1 -1 0.000 0 0 -1 0 0 4
	 0 1800 -180 2070 225 2070 0 1800
2 3 0 1 0 7 50 -1 -1 0.000 0 0 -1 0 0 4
	 3510 1800 3330 2070 3735 2070 3510 1800
2 3 0 1 0 7 50 -1 -1 0.000 0 0 -1 0 0 4
	 8055 1800 7875 2070 8280 2070 8055 1800
2 1 0 1 0 7 50 -1 -1 0.000 0 0 -1 0 0 2
	 3330 2160 3735 2160
2 1 0 1 0 7 50 -1 -1 0.000 0 0 -1 0 0 2
	 7875 2160 8280 2160
2 1 1 1 0 7 50 -1 -1 4.000 0 0 -1 0 0 2
	 0 2250 0 15795
2 1 1 1 0 7 50 -1 -1 4.000 0 0 -1 0 0 2
	 3510 2250 3510 15660
2 1 1 1 0 7 50 -1 -1 4.000 0 0 -1 0 0 2
	 5400 2385 5400 15750
2 1 1 1 0 7 50 -1 -1 4.000 0 0 -1 0 0 2
	 8100 2385 8100 15480
2 1 1 1 0 7 50 -1 -1 4.000 0 0 -1 0 0 2
	 1665 1530 1665 15615
2 1 0 1 0 7 50 -1 -1 4.000 0 0 -1 1 1 2
	1 1 1.00 60.00 120.00
	1 1 1.00 60.00 120.00
	 0 2520 1665 2520
2 1 0 1 0 7 50 -1 -1 4.000 0 0 -1 1 1 2
	1 1 1.00 60.00 120.00
	1 1 1.00 60.00 120.00
	 1665 2520 3510 2520
2 1 0 1 0 7 50 -1 -1 4.000 0 0 -1 1 1 2
	1 1 1.00 60.00 120.00
	1 1 1.00 60.00 120.00
	 3510 2520 5400 2520
2 1 0 1 0 7 50 -1 -1 4.000 0 0 -1 1 1 2
	1 1 1.00 60.00 120.00
	1 1 1.00 60.00 120.00
	 5400 2520 8100 2520
2 1 0 1 0 7 50 -1 -1 4.000 0 0 -1 0 0 2
	 0 3960 8100 3960
2 1 0 1 0 7 50 -1 -1 4.000 0 0 -1 0 0 3
	 0 3105 5445 4455 8100 3960
2 1 0 1 0 7 50 -1 -1 4.000 0 0 -1 0 0 2
	 0 5580 8100 5580
2 1 0 1 0 7 50 -1 -1 4.000 0 0 -1 0 0 3
	 0 5580 5400 4545 8100 5535
2 1 0 1 0 7 50 -1 -1 4.000 0 0 -1 0 0 2
	 0 7155 8100 7155
2 1 0 1 0 7 50 -1 -1 4.000 0 0 -1 0 0 2
	 5400 7155 8100 6345
2 1 0 1 0 7 50 -1 -1 4.000 0 0 -1 0 0 2
	 0 8685 8100 8685
2 1 0 1 0 7 50 -1 -1 4.000 0 0 -1 0 0 3
	 3510 8685 5400 9585 8145 8685
2 1 0 1 0 7 50 -1 -1 4.000 0 0 -1 0 0 2
	 0 10440 8100 10440
2 1 0 1 0 7 50 -1 -1 4.000 0 0 -1 0 0 5
	 0 10440 3510 11205 3510 10440 5400 10890 8100 10485
2 1 0 3 0 7 50 -1 -1 8.000 0 0 -1 0 0 2
	 2430 10800 2115 11070
2 1 0 3 0 7 50 -1 -1 8.000 0 0 -1 0 0 2
	 2565 10845 2250 11115
2 1 0 3 0 7 50 -1 -1 8.000 0 0 -1 0 0 2
	 4725 10530 4410 10800
2 1 0 3 0 7 50 -1 -1 8.000 0 0 -1 0 0 2
	 4860 10575 4545 10845
2 1 0 1 0 7 50 -1 -1 4.000 0 0 -1 1 0 2
	1 1 1.00 60.00 120.00
	 11700 7830 11700 8595
2 1 0 1 0 7 50 -1 -1 4.000 0 0 -1 1 0 3
	1 1 1.00 60.00 120.00
	 9000 8685 10665 8190 11745 8685
2 1 0 1 0 7 50 -1 -1 4.000 0 0 -1 0 0 2
	 10665 8685 10665 8190
2 1 0 1 0 7 50 -1 -1 4.000 0 0 -1 0 0 6
	 9000 9900 9000 10395 10665 10395 10665 9225 11700 9225 11700 9855
2 1 0 1 0 7 50 -1 -1 4.000 0 0 -1 0 0 2
	 0 12330 8100 12330
2 1 0 1 0 7 50 -1 -1 4.000 0 0 -1 1 0 2
	1 1 1.00 60.00 120.00
	 9855 11295 9855 12060
2 1 0 1 0 7 50 -1 -1 4.000 0 0 -1 0 0 3
	 9045 12060 9855 12465 10710 12060
2 1 0 1 0 7 50 -1 -1 4.000 0 0 -1 0 0 4
	 0 12330 1665 13095 5400 11565 8100 12330
2 1 0 1 0 7 50 -1 -1 4.000 0 0 -1 0 0 2
	 0 14400 8100 14400
2 1 0 1 0 7 50 -1 -1 4.000 0 0 -1 0 0 5
	 0 14400 1665 14805 1665 13950 5400 14850 8145 14400
2 1 0 3 0 7 50 -1 -1 8.000 0 0 -1 0 0 2
	 1215 14580 945 14760
2 1 0 3 0 7 50 -1 -1 8.000 0 0 -1 0 0 2
	 1350 14625 1080 14805
2 1 0 3 0 7 50 -1 -1 8.000 0 0 -1 0 0 2
	 2295 13950 2025 14130
2 1 0 3 0 7 50 -1 -1 8.000 0 0 -1 0 0 2
	 2430 13995 2160 14175
4 0 0 50 -1 0 24 0.0000 4 270 300 225 2160 A\001
4 0 0 50 -1 0 24 0.0000 4 270 270 3780 2250 B\001
4 0 0 50 -1 0 24 0.0000 4 270 270 5625 2115 C\001
4 0 0 50 -1 0 24 0.0000 4 270 300 7380 2115 D\001
4 0 0 50 -1 0 24 0.0000 4 270 210 720 2475 2\001
4 0 0 50 -1 0 24 0.0000 4 270 210 4410 2475 2\001
4 0 0 50 -1 0 24 0.0000 4 270 210 2340 2475 2\001
4 0 0 50 -1 0 24 0.0000 4 270 210 6525 2520 4\001
4 0 0 50 -1 32 24 0.0000 4 300 240 -765 4050 h\001
4 0 0 50 -1 0 24 0.0000 4 270 300 -540 4005 A\001
4 0 0 50 -1 32 24 0.0000 4 300 240 -765 5085 h\001
4 0 0 50 -1 0 24 0.0000 4 270 270 -540 5040 B\001
4 0 0 50 -1 32 24 0.0000 4 300 240 -810 7200 h\001
4 0 0 50 -1 0 24 0.0000 4 270 300 -585 7155 D\001
4 0 0 50 -1 32 24 0.0000 4 300 240 -900 8550 h\001
4 0 0 50 -1 32 24 0.0000 4 270 360 -675 8505 M\001
4 0 0 50 -1 0 18 0.0000 4 195 195 -315 8595 B\001
4 0 0 50 -1 0 24 0.0000 4 270 345 3645 11250 -1\001
4 0 0 50 -1 0 24 0.0000 4 285 660 5535 11205 -0.5\001
4 0 0 50 -1 0 24 0.0000 4 270 210 11745 8190 1\001
4 0 0 50 -1 32 24 0.0000 4 270 360 8370 8505 M\001
4 0 0 50 -1 0 24 0.0000 4 270 210 10755 8280 2\001
4 0 0 50 -1 0 24 0.0000 4 270 210 5670 9810 2\001
4 0 0 50 -1 0 24 0.0000 4 270 300 8370 9855 V\001
4 0 0 50 -1 0 24 0.0000 4 285 660 10755 10575 -0.5\001
4 0 0 50 -1 0 24 0.0000 4 270 210 11745 9450 1\001
4 0 0 50 -1 0 24 0.0000 4 270 210 7425 6390 1\001
4 0 0 50 -1 0 24 0.0000 4 270 210 3105 4905 1\001
4 0 0 50 -1 0 24 0.0000 4 285 525 4860 4905 1.5\001
4 0 0 50 -1 0 24 0.0000 4 270 210 90 3150 1\001
4 0 0 50 -1 0 24 0.0000 4 285 660 5850 4545 -0.5\001
4 0 0 50 -1 32 24 0.0000 4 300 240 -855 12375 h\001
4 0 0 50 -1 32 24 0.0000 4 270 360 -630 12330 M\001
4 0 0 50 -1 0 18 0.0000 4 135 135 -225 12375 e\001
4 0 0 50 -1 0 18 0.0000 4 135 135 1755 2070 e\001
4 0 0 50 -1 0 24 0.0000 4 270 210 9900 11520 1\001
4 0 0 50 -1 32 24 0.0000 4 270 360 8415 12015 M\001
4 0 0 50 -1 0 24 0.0000 4 270 210 10035 12645 1\001
4 0 0 50 -1 0 24 0.0000 4 270 210 2070 13140 1\001
4 0 0 50 -1 0 24 0.0000 4 270 210 5760 11655 1\001
4 0 0 50 -1 0 24 0.0000 4 285 660 1710 14940 -0.5\001
4 0 0 50 -1 0 24 0.0000 4 285 525 945 14040 0.5\001
4 0 0 50 -1 0 24 0.0000 4 285 525 5715 15030 0.5\001
4 0 0 50 -1 32 24 0.0000 4 300 240 -765 14490 h\001
4 0 0 50 -1 0 24 0.0000 4 270 300 -630 14445 V\001
4 0 0 50 -1 0 18 0.0000 4 135 135 -360 14490 e\001
