#FIG 3.2  Produced by xfig version 3.2.5c
Landscape
Center
Inches
Letter  
100.00
Single
-2
1200 2
5 1 0 1 0 7 50 -1 -1 4.000 0 0 0 0 1800.000 3112.500 0 1050 1800 375 3600 1050
2 1 0 1 0 7 50 -1 -1 0.000 0 0 -1 0 0 2
	 0 -450 0 375
2 1 0 1 0 7 50 -1 -1 0.000 0 0 -1 0 0 2
	 3600 -375 3600 450
2 1 1 1 0 7 50 -1 -1 4.000 0 0 -1 0 0 2
	 0 525 0 1500
2 1 1 1 0 7 50 -1 -1 4.000 0 0 -1 0 0 2
	 3600 525 3600 1500
2 1 0 3 0 7 50 -1 -1 8.000 0 0 -1 0 0 2
	 0 0 3600 0
2 1 0 1 0 7 50 -1 -1 4.000 0 0 -1 0 0 2
	 0 1050 3600 1050
2 1 0 1 0 7 50 -1 -1 4.000 0 0 -1 0 0 2
	 2625 375 4500 375
2 1 0 1 0 7 50 -1 -1 4.000 0 0 -1 0 0 2
	 3900 1050 4500 1050
2 1 0 1 0 7 50 -1 -1 4.000 0 0 -1 1 0 2
	1 1 1.00 60.00 120.00
	 4350 1050 4350 375
2 1 0 1 0 7 50 -1 -1 4.000 0 0 -1 1 1 2
	1 1 1.00 60.00 120.00
	1 1 1.00 60.00 120.00
	 0 1425 3600 1425
2 2 0 1 0 7 50 -1 50 4.000 0 0 -1 0 0 5
	 0 -75 3600 -75 3600 -300 0 -300 0 -75
2 1 0 1 0 7 50 -1 -1 4.000 0 0 -1 0 0 4
	 1350 -450 1425 -300 1575 -600 2100 -600
2 1 0 1 0 7 50 -1 -1 4.000 0 0 -1 0 0 2
	 6375 1050 9975 1050
2 1 0 1 0 7 50 -1 -1 0.000 0 0 -1 0 0 4
	 6375 1050 6375 375 9975 1725 9975 1050
4 0 0 50 -1 1 24 0.0000 4 375 930 4425 975 fl /8E\001
4 0 0 50 -1 0 18 0.0000 4 195 150 4650 825 2\001
4 0 0 50 -1 1 24 0.0000 4 285 120 1800 1425 l\001
4 0 0 50 -1 1 24 0.0000 4 375 120 1725 -600 f\001
4 0 0 50 -1 1 24 0.0000 4 345 795 300 450 u(x):\001
4 0 0 50 -1 1 24 0.0000 4 375 1095 6825 525 fl/(2A)\001
4 0 0 50 -1 32 24 0.0000 4 195 360 8175 750 s:\001
4 0 0 50 -1 1 24 0.0000 4 375 1230 8550 1875 -fl/(2A)\001
