#FIG 3.2  Produced by xfig version 3.2.5c
Landscape
Center
Inches
Letter  
100.00
Single
-2
1200 2
2 1 0 3 0 7 50 -1 -1 8.000 0 0 -1 0 0 2
	 0 0 4800 0
2 1 0 1 0 7 50 -1 -1 4.000 0 0 -1 0 0 2
	 0 -450 0 450
2 1 0 1 0 7 50 -1 -1 4.000 0 0 -1 0 0 2
	 2400 -75 2400 150
2 2 0 1 0 7 50 -1 50 4.000 0 0 -1 0 0 5
	 0 -75 4800 -75 4800 -375 0 -375 0 -75
2 1 0 1 0 7 50 -1 -1 4.000 0 0 -1 0 0 4
	 1650 -525 1800 -375 2025 -750 2625 -750
2 1 0 3 0 7 50 -1 -1 8.000 0 0 -1 0 0 2
	 6000 0 10800 0
2 1 0 1 0 7 50 -1 -1 4.000 0 0 -1 0 0 3
	 6000 0 6000 -1200 10800 0
2 1 0 2 0 7 50 -1 -1 6.000 0 0 -1 0 0 2
	 6000 -900 8400 -900
2 1 0 2 0 7 50 -1 -1 6.000 0 0 -1 0 0 2
	 8400 -300 10725 -300
2 1 0 2 0 7 50 -1 -1 6.000 0 0 -1 0 0 2
	 8400 -900 8400 -300
4 0 0 50 -1 0 24 0.0000 4 270 210 75 450 1\001
4 0 0 50 -1 0 24 0.0000 4 270 210 2250 450 2\001
4 0 0 50 -1 0 24 0.0000 4 270 210 4575 375 3\001
4 0 0 50 -1 1 24 0.0000 4 330 930 900 450 el 1,2\001
4 0 0 50 -1 1 24 0.0000 4 330 930 2925 450 el 2,3\001
4 0 0 50 -1 1 24 0.0000 4 375 120 2325 -750 f\001
4 0 0 50 -1 32 24 0.0000 4 195 360 7875 -1125 s:\001
4 0 0 50 -1 1 24 0.0000 4 375 240 5550 -1125 fl\001
4 0 0 50 -1 1 24 0.0000 4 375 975 5025 -675 0.75fl\001
4 0 0 50 -1 1 24 0.0000 4 375 975 10200 -450 0.25fl\001
