#FIG 3.2  Produced by xfig version 3.2.6a
Landscape
Center
Metric
A4
100.00
Single
-2
1200 2
6 -45 1755 7245 4545
2 1 0 3 0 7 50 -1 -1 0.000 0 0 -1 0 0 2
	 0 4500 3600 1800
2 1 0 3 0 7 50 -1 -1 0.000 0 0 -1 0 0 2
	 3600 1800 7200 4500
-6
6 7920 1755 15210 4545
2 1 0 3 0 7 50 -1 -1 0.000 0 0 -1 0 0 2
	 7965 4500 11565 1800
2 1 0 3 0 7 50 -1 -1 0.000 0 0 -1 0 0 2
	 11565 1800 15165 4500
-6
6 15930 1800 23220 4590
2 1 0 3 0 7 50 -1 -1 0.000 0 0 -1 0 0 2
	 15975 4545 19575 1845
2 1 0 3 0 7 50 -1 -1 0.000 0 0 -1 0 0 2
	 19575 1845 23175 4545
-6
2 1 0 1 0 7 50 -1 -1 0.000 0 0 -1 0 0 3
	 0 4500 -495 3825 3600 1800
2 1 0 1 0 7 50 -1 -1 0.000 0 0 -1 0 0 3
	 3600 1800 6660 5175 7245 4500
2 1 0 1 0 7 50 -1 -1 0.000 0 0 -1 0 0 4
	 7965 4500 7875 4455 11520 1710 11565 1800
2 1 0 1 0 7 50 -1 -1 0.000 0 0 -1 0 0 4
	 11565 1800 11610 1710 15255 4410 15075 4455
2 1 0 1 0 7 50 -1 -1 0.000 0 0 -1 0 0 4
	 15975 4545 15435 3915 19125 1215 19620 1890
2 1 0 1 0 7 50 -1 -1 0.000 0 0 -1 0 0 4
	 19620 1890 19125 2565 22680 5265 23175 4545
4 0 0 50 -1 0 24 0.0000 4 270 480 1305 1665 M:\001
4 0 0 50 -1 0 24 0.0000 4 270 945 -630 3645 0.044\001
4 0 0 50 -1 0 24 0.0000 4 270 945 5490 5130 0.044\001
4 0 0 50 -1 0 24 0.0000 4 270 420 8145 2160 V:\001
4 0 0 50 -1 0 24 0.0000 4 270 1155 8145 3600 0.0176\001
4 0 0 50 -1 0 24 0.0000 4 270 1155 13365 2880 0.0176\001
4 0 0 50 -1 0 24 0.0000 4 270 420 16695 2475 N:\001
4 0 0 50 -1 0 24 0.0000 4 270 945 15525 3285 0.612\001
4 0 0 50 -1 0 24 0.0000 4 270 1080 19395 4095 -0.612\001
