#FIG 3.2  Produced by xfig version 3.2.6a
Landscape
Center
Metric
A4
100.00
Single
-2
1200 2
2 1 0 3 0 7 50 -1 -1 0.000 0 0 -1 0 0 3
	 0 4500 3600 1800 7200 4500
2 3 0 1 0 7 50 -1 50 0.000 0 0 -1 0 0 5
	 0 4455 3600 1755 3600 1305 0 4005 0 4455
2 1 0 1 0 7 50 -1 50 0.000 0 0 -1 0 0 2
	 -450 4500 630 4500
2 1 0 1 0 7 50 -1 50 0.000 0 0 -1 0 0 2
	 6750 4500 7650 4500
2 1 0 1 0 7 50 -1 -1 0.000 0 0 -1 0 0 4
	 1170 2700 1395 2925 1260 2160 1845 2160
4 0 0 50 -1 0 24 0.0000 4 270 210 -630 4275 1\001
4 0 0 50 -1 0 24 0.0000 4 270 210 7200 4275 2\001
4 0 0 50 -1 0 24 0.0000 4 270 210 3915 1800 3\001
4 0 0 50 -1 0 24 0.0000 4 270 210 1395 2115 1\001
