#FIG 3.2  Produced by xfig version 3.2.6a
Landscape
Center
Metric
A4
100.00
Single
-2
1200 2
6 1080 4815 1395 5085
4 0 0 50 -1 0 24 0.0000 4 180 210 1080 4995 x\001
4 0 0 50 -1 0 18 0.0000 4 210 90 1305 5085 l\001
-6
6 5400 4815 5715 5085
4 0 0 50 -1 0 24 0.0000 4 180 210 5400 4995 x\001
4 0 0 50 -1 0 18 0.0000 4 210 90 5625 5085 l\001
-6
6 4545 5805 4905 6255
4 0 0 50 -1 0 24 5.4978 4 180 210 4566 5969 x\001
4 0 0 50 -1 0 18 5.4978 4 210 90 4661 6191 l\001
-6
1 4 0 3 0 7 50 -1 -1 0.000 1 0.0000 3600 4500 72 72 3533 4478 3668 4523
2 1 0 3 0 7 50 -1 -1 0.000 0 0 -1 0 0 2
	 3645 4545 7200 7200
2 3 0 3 0 7 50 -1 -1 0.000 0 0 -1 0 0 4
	 7425 7020 7200 7200 7425 7425 7425 7020
2 1 0 3 0 7 50 -1 -1 0.000 0 0 -1 0 0 2
	 7200 4140 7200 4950
2 1 0 3 0 7 50 -1 -1 0.000 0 0 -1 0 0 2
	 7200 4230 7470 4005
2 1 0 3 0 7 50 -1 -1 0.000 0 0 -1 0 0 2
	 7200 4410 7470 4185
2 1 0 3 0 7 50 -1 -1 0.000 0 0 -1 0 0 2
	 7199 4606 7469 4381
2 1 0 3 0 7 50 -1 -1 0.000 0 0 -1 0 0 2
	 7251 4795 7521 4570
2 1 0 3 0 7 50 -1 -1 0.000 0 0 -1 0 0 2
	 -270 4320 0 4095
2 1 0 3 0 7 50 -1 -1 0.000 0 0 -1 0 0 2
	 -270 4545 0 4320
2 1 0 3 0 7 50 -1 -1 0.000 0 0 -1 0 0 2
	 -270 4770 0 4545
2 1 0 3 0 7 50 -1 -1 0.000 0 0 -1 0 0 2
	 -270 4950 0 4725
2 1 0 1 0 7 50 -1 -1 0.000 0 0 -1 0 0 2
	 0 7065 0 8100
2 1 0 1 0 7 50 -1 -1 0.000 0 0 -1 0 0 2
	 3600 7020 3600 8055
2 1 0 1 0 7 50 -1 -1 0.000 0 0 -1 0 0 2
	 7200 7470 7200 8010
2 1 0 1 0 7 50 -1 -1 0.000 0 0 -1 0 0 2
	 7785 4455 8640 4455
2 1 0 1 0 7 50 -1 -1 0.000 0 0 -1 0 0 2
	 7695 7200 8550 7200
2 1 0 1 0 7 50 -1 -1 0.000 0 0 -1 1 1 2
	1 1 1.00 60.00 120.00
	1 1 1.00 60.00 120.00
	 0 7695 3645 7695
2 1 0 1 0 7 50 -1 -1 0.000 0 0 -1 1 1 2
	1 1 1.00 60.00 120.00
	1 1 1.00 60.00 120.00
	 3645 7695 7200 7695
2 1 0 1 0 7 50 -1 -1 0.000 0 0 -1 1 1 2
	1 1 1.00 60.00 120.00
	1 1 1.00 60.00 120.00
	 8325 7200 8325 4455
2 1 0 3 0 7 50 -1 -1 0.000 0 0 -1 0 0 2
	 0 4095 0 4950
2 2 0 1 0 7 50 -1 50 0.000 0 0 -1 0 0 5
	 0 4410 3600 4410 3600 4095 0 4095 0 4410
2 1 0 1 0 7 50 -1 -1 0.000 0 0 -1 0 0 4
	 1890 3870 2070 4140 2205 3645 2970 3645
2 1 0 1 0 7 50 -1 -1 0.000 0 0 -1 1 0 2
	1 1 1.00 60.00 120.00
	 675 4680 2025 4680
2 1 0 1 0 7 50 -1 -1 0.000 0 0 -1 1 0 2
	1 1 1.00 60.00 120.00
	 6345 4725 4590 4725
2 1 0 1 0 7 50 -1 -1 0.000 0 0 -1 1 0 2
	1 1 1.00 60.00 120.00
	 4320 5490 5580 6390
2 1 0 3 0 7 50 -1 -1 0.000 0 0 -1 0 0 2
	 0 4500 3510 4500
2 1 0 3 0 7 50 -1 -1 0.000 0 0 -1 0 0 2
	 3690 4500 7200 4500
4 0 0 50 -1 0 24 0.0000 4 270 210 1710 7605 4\001
4 0 0 50 -1 0 24 0.0000 4 270 210 5220 7650 4\001
4 0 0 50 -1 0 24 1.5708 4 270 210 8235 5985 3\001
4 0 0 50 -1 0 24 0.0000 4 270 210 135 4995 1\001
4 0 0 50 -1 0 24 0.0000 4 270 210 3330 4950 2\001
4 0 0 50 -1 0 24 0.0000 4 270 210 6795 4860 3\001
4 0 0 50 -1 0 24 0.0000 4 270 210 6840 7470 4\001
4 0 0 50 -1 0 24 0.0000 4 285 735 2250 3645 0.75\001
