#FIG 3.2  Produced by xfig version 3.2.6a
Landscape
Center
Metric
A4
100.00
Single
-2
1200 2
2 1 0 1 0 7 50 -1 -1 0.000 0 0 -1 1 0 2
	1 1 1.00 60.00 120.00
	 0 0 5085 0
2 1 0 1 0 7 50 -1 -1 0.000 0 0 -1 1 0 2
	1 1 1.00 60.00 120.00
	 0 0 0 -4320
2 1 1 3 0 7 50 -1 -1 8.000 0 0 -1 0 0 2
	 405 -45 3285 -45
2 1 1 3 0 7 50 -1 -1 8.000 0 0 -1 0 0 3
	 45 -315 45 -3150 90 -3150
2 1 1 3 0 7 50 -1 -1 8.000 0 0 -1 0 0 2
	 405 -360 2410 -2365
2 1 0 1 0 7 50 -1 -1 0.000 0 0 -1 1 0 2
	1 1 1.00 60.00 120.00
	 0 0 4140 -1710
2 1 0 1 0 7 50 -1 -1 0.000 0 0 -1 1 0 2
	1 1 1.00 60.00 120.00
	 0 0 -1710 -4185
2 1 0 3 0 7 50 -1 -1 8.000 0 0 -1 0 0 2
	 1309 -700 3604 -1626
2 1 0 3 0 7 50 -1 -1 8.000 0 0 -1 0 0 2
	 -890 -2524 -1227 -3358
2 1 0 1 0 7 50 -1 -1 4.000 0 0 -1 1 0 2
	1 1 1.00 60.00 120.00
	 0 0 -3150 -3150
2 1 0 3 0 7 50 -1 -1 8.000 0 0 -1 0 0 2
	 -1140 -972 -2040 -1917
4 0 0 50 -1 0 24 0.0000 4 270 945 1305 -135 0.001\001
4 0 0 50 -1 0 24 1.5708 4 285 1155 -90 -1215 0.0005\001
4 0 0 50 -1 0 24 0.7854 4 270 945 900 -990 0.001\001
4 0 0 50 -1 3 24 0.0000 4 180 225 3780 -1260 n\001
4 0 0 50 -1 1 24 0.0000 4 180 180 4770 315 x\001
4 0 0 50 -1 1 24 0.0000 4 255 180 -315 -3960 y\001
4 0 0 50 -1 1 18 0.0000 4 195 150 -1935 -3645 2\001
4 0 0 50 -1 3 24 0.0000 4 180 225 -2115 -3735 n\001
4 0 0 50 -1 1 18 0.0000 4 195 150 3960 -1170 1\001
4 0 0 50 -1 0 24 5.0964 4 270 1365 -1305 -3780 0.00040\001
4 0 0 50 -1 0 24 0.3840 4 270 1365 1710 -990 0.00110\001
4 0 0 50 -1 0 24 5.4978 4 285 1155 -2295 -1530 0.0005\001
4 0 0 50 -1 3 24 0.0000 4 180 225 -2925 -3015 n\001
4 0 0 50 -1 0 18 0.0000 4 210 450 -2790 -2880 135\001
