#FIG 3.2
Landscape
Center
Metric
Letter  
100.00
Single
-2
1200 2
5 1 0 3 0 7 50 0 -1 0.000 0 0 0 0 3404.423 3795.577 3645 1845 4860 2475 5355 3555
5 1 0 3 0 7 50 0 -1 0.000 0 1 0 0 7440.577 3795.577 7200 1845 5985 2475 5490 3555
6 1800 10215 9180 10980
2 1 0 1 0 7 50 0 -1 0.000 0 0 -1 0 0 2
	 1845 10260 9180 10260
2 1 0 2 0 7 50 0 -1 0.000 0 0 -1 0 0 3
	 1845 10260 3645 10935 7335 10260
-6
1 3 0 1 0 7 50 0 -1 0.000 1 0.0000 3600 1800 64 64 3600 1800 3645 1755
1 3 0 1 0 7 50 0 -1 0.000 1 0.0000 7245 1800 64 64 7245 1800 7290 1755
1 3 0 1 0 7 50 0 -1 0.000 1 0.0000 5400 3600 64 64 5400 3600 5445 3555
2 1 0 3 0 7 50 0 -1 0.000 0 0 -1 0 0 2
	 1800 1800 3510 1800
2 1 0 3 0 7 50 0 -1 0.000 0 0 -1 0 0 2
	 3690 1800 7200 1800
2 1 0 3 0 7 50 0 -1 0.000 0 0 -1 0 0 2
	 7334 1801 9044 3601
2 3 0 1 0 7 50 0 -1 0.000 0 0 -1 0 0 4
	 1710 1980 1800 1800 1935 1980 1710 1980
2 3 0 1 0 7 50 0 -1 0.000 0 0 -1 0 0 4
	 8955 3780 9045 3600 9180 3780 8955 3780
2 1 0 1 0 7 50 0 -1 0.000 0 0 -1 0 0 2
	 1800 2115 1800 14895
2 1 0 1 0 7 50 0 -1 0.000 0 0 -1 0 0 2
	 3600 2070 3600 14940
2 1 0 1 0 7 50 0 -1 0.000 0 0 -1 0 0 2
	 5445 4140 5445 14940
2 3 0 1 0 7 50 0 -1 0.000 0 0 -1 0 0 4
	 5310 3825 5400 3645 5535 3825 5310 3825
2 1 0 1 0 7 50 0 -1 0.000 0 0 -1 0 0 2
	 5310 3915 5535 3915
2 1 0 1 0 7 50 0 -1 0.000 0 0 -1 0 0 2
	 7605 1800 9675 1800
2 1 0 1 0 7 50 0 -1 0.000 0 0 -1 0 0 2
	 9180 3600 9720 3600
2 1 0 1 0 7 50 0 -1 0.000 0 0 -1 1 1 2
	1 1 1.00 60.00 120.00
	1 1 1.00 60.00 120.00
	 1800 4455 9090 4455
2 1 0 1 0 7 50 0 -1 0.000 0 0 -1 0 0 2
	 7290 4140 7290 14940
2 1 0 1 0 7 50 0 -1 0.000 0 0 -1 1 1 2
	1 1 1.00 60.00 120.00
	1 1 1.00 60.00 120.00
	 9630 3600 9630 1800
2 1 0 1 0 7 50 0 -1 0.000 0 0 -1 0 0 2
	 5940 1485 7830 1485
2 1 0 1 0 7 50 0 -1 0.000 0 0 -1 0 0 2
	 8055 1485 8820 1485
2 1 0 2 0 7 50 0 -1 0.000 0 0 -1 1 0 2
	1 1 2.00 120.00 240.00
	 7965 1260 7965 2205
2 1 0 2 0 7 50 0 -1 0.000 0 0 -1 0 0 2
	 4815 2610 5040 2430
2 1 0 2 0 7 50 0 -1 0.000 0 0 -1 0 0 2
	 5400 1710 5400 1935
2 1 0 1 0 7 50 0 -1 0.000 0 0 -1 0 0 2
	 1800 5535 9135 5535
2 1 0 2 0 7 50 0 -1 0.000 0 0 -1 0 0 2
	 1800 5085 3600 5535
2 1 0 1 0 7 50 0 -1 0.000 0 0 -1 0 0 2
	 1800 6930 9135 6930
2 1 0 2 0 7 50 0 -1 0.000 0 0 -1 0 0 3
	 1800 6930 3600 6030 7335 6930
2 1 0 1 0 7 50 0 -1 0.000 0 0 -1 0 0 2
	 1800 7875 9135 7875
2 1 0 2 0 7 50 0 -1 0.000 0 0 -1 0 0 4
	 1800 7875 3600 7470 7290 8280 9135 7875
2 1 0 2 0 7 50 0 -1 0.000 0 0 -1 0 0 3
	 1753 11239 3600 11880 7290 11250
2 1 0 1 0 7 50 0 -1 0.000 0 0 -1 0 0 2
	 1800 11250 9135 11250
2 1 0 1 0 7 50 0 -1 0.000 0 0 -1 0 0 2
	 9090 4140 9090 14985
2 1 0 1 0 7 50 0 -1 0.000 0 0 -1 0 0 2
	 1800 9180 9135 9180
2 1 0 2 0 7 50 0 -1 0.000 0 0 -1 0 0 4
	 1845 9180 3600 9585 7290 8775 9090 8775
2 1 0 1 0 7 50 0 -1 0.000 0 0 -1 0 0 2
	 1800 12870 9135 12870
2 1 0 2 0 7 50 0 -1 0.000 0 0 -1 0 0 4
	 1798 12882 3598 12477 7288 13287 9133 12882
2 1 0 1 0 7 50 0 -1 0.000 0 0 -1 0 0 2
	 1800 14535 9135 14535
2 1 0 2 0 7 50 0 -1 0.000 0 0 -1 0 0 3
	 3600 14535 5445 13320 7290 14535
4 0 0 50 0 0 24 0.0000 4 255 255 2025 2205 A\001
4 0 0 50 0 0 24 0.0000 4 255 255 3735 2205 D\001
4 0 0 50 0 0 24 0.0000 4 255 240 5625 3825 B\001
4 0 0 50 0 0 24 0.0000 4 255 225 7155 2250 E\001
4 0 0 50 0 0 24 0.0000 4 255 240 8640 3735 C\001
4 0 0 50 0 0 24 0.0000 4 255 735 4140 4410 4x10\001
4 0 0 50 0 0 24 1.5708 4 255 360 9585 2880 10\001
4 0 0 50 0 0 24 0.0000 4 255 180 4635 2835 g\001
4 0 0 50 0 0 24 0.0000 4 255 195 5490 2160 h\001
4 0 0 50 0 0 24 0.0000 4 255 180 5715 13500 5\001
4 0 0 50 0 0 24 0.0000 4 255 180 3960 12555 1\001
4 0 0 50 0 0 24 0.0000 4 255 390 7695 13500 -1\001
4 0 0 50 0 0 24 0.0000 4 255 330 2340 14400 M\001
4 0 0 50 0 0 24 0.0000 4 255 270 2205 12555 N\001
4 0 0 50 0 0 24 0.0000 4 255 330 2160 11115 M\001
4 0 0 50 0 0 24 0.0000 4 255 270 2250 10080 N\001
4 0 0 50 0 0 24 0.0000 4 255 240 2295 9000 C\001
4 0 0 50 0 0 24 0.0000 4 255 240 2205 7515 C\001
4 0 0 50 0 0 24 0.0000 4 255 240 2205 6480 B\001
4 0 0 50 0 0 24 0.0000 4 255 255 3825 5355 A\001
4 0 0 50 0 32 24 0.0000 4 270 225 1215 10890 h\001
4 0 0 50 0 32 24 0.0000 4 270 225 1980 6480 h\001
4 0 0 50 0 32 24 0.0000 4 270 225 1980 7515 h\001
4 0 0 50 0 32 24 0.0000 4 270 225 2070 9000 h\001
4 0 0 50 0 32 24 0.0000 4 270 225 2025 10080 h\001
4 0 0 50 0 32 24 0.0000 4 270 225 1935 11115 h\001
4 0 0 50 0 32 24 0.0000 4 270 225 1980 12555 h\001
4 0 0 50 0 32 24 0.0000 4 270 225 2115 14400 h\001
4 0 0 50 0 0 16 0.0000 4 120 120 2475 7605 x\001
4 0 0 50 0 0 16 0.0000 4 180 120 2565 9090 y\001
4 0 0 50 0 0 16 0.0000 4 180 120 2520 10215 g\001
4 0 0 50 0 0 16 0.0000 4 180 120 2520 11205 g\001
4 0 0 50 0 0 16 0.0000 4 165 120 2475 12690 h\001
4 0 0 50 0 0 16 0.0000 4 165 120 2700 14490 h\001
4 0 0 50 0 0 24 0.0000 4 255 1020 3915 12105 -0.415\001
4 0 0 50 0 0 24 0.0000 4 255 630 4050 11160 1.41\001
4 0 0 50 0 0 24 0.0000 4 255 180 4050 9810 1\001
4 0 0 50 0 0 24 0.0000 4 255 390 8685 8685 -1\001
4 0 0 50 0 0 24 0.0000 4 255 180 4005 7560 1\001
4 0 0 50 0 0 24 0.0000 4 255 390 7515 8460 -1\001
4 0 0 50 0 0 24 0.0000 4 255 180 4005 6165 2\001
4 0 0 50 0 0 24 0.0000 4 255 180 2295 5220 1\001
