#FIG 3.2
Landscape
Center
Inches
Letter  
100.00
Single
-2
1200 2
6 1125 1125 6075 3675
2 1 0 3 0 7 50 0 -1 0.000 0 0 -1 0 0 4
	 1200 3600 3600 1200 6000 3600 1200 3600
2 3 0 3 0 7 50 0 -1 0.000 0 0 -1 0 0 4
	 2400 2400 4800 2400 3600 3600 2400 2400
-6
6 5925 1125 10875 3675
2 1 0 3 0 7 50 0 -1 0.000 0 0 -1 0 0 4
	 10800 3600 8400 1200 6000 3600 10800 3600
2 3 0 3 0 7 50 0 -1 0.000 0 0 -1 0 0 4
	 9600 2400 7200 2400 8400 3600 9600 2400
-6
2 1 0 3 0 7 50 0 -1 0.000 0 0 -1 0 0 2
	 3600 1200 8400 1200
2 3 0 1 0 7 50 0 -1 0.000 0 0 -1 0 0 4
	 1050 3825 1200 3600 1350 3825 1050 3825
2 3 0 1 0 7 50 0 -1 0.000 0 0 -1 0 0 4
	 10650 3825 10800 3600 10950 3825 10650 3825
2 1 0 1 0 7 50 0 45 4.000 0 0 -1 0 0 2
	 10650 3900 10950 3900
2 1 0 2 0 7 50 0 45 6.000 0 0 -1 1 0 2
	1 1 2.00 120.00 240.00
	 3600 3750 3600 4425
2 1 1 2 0 7 50 0 -1 6.000 0 0 -1 1 0 2
	1 1 2.00 120.00 240.00
	 1200 4275 1200 3900
2 1 1 2 0 7 50 0 -1 6.000 0 0 -1 1 0 2
	1 1 2.00 120.00 240.00
	 10800 4275 10800 3900
3 0 1 2 0 7 50 0 -1 6.000 0 0 0 4
	 5025 900 5475 2025 4950 3300 5400 4350
	 0.000 1.000 1.000 0.000
4 0 0 50 0 0 32 0.0000 4 330 225 3225 1350 6\001
4 0 0 50 0 0 32 0.0000 4 330 225 1050 3525 1\001
4 0 0 50 0 0 32 0.0000 4 330 225 5925 3375 3\001
4 0 0 50 0 0 32 0.0000 4 330 225 4950 2400 4\001
4 0 0 50 0 0 32 0.0000 4 330 225 2175 2400 5\001
4 0 0 50 0 0 32 0.0000 4 330 225 3525 3450 2\001
4 0 0 50 0 0 32 0.0000 4 330 225 3675 4200 1\001
4 0 0 50 0 0 32 0.0000 4 330 795 1425 4350 0.75\001
4 0 0 50 0 0 32 0.0000 4 330 795 9900 4275 0.25\001
