#FIG 3.2
Landscape
Center
Inches
Letter  
100.00
Single
-2
1200 2
6 3225 1725 8850 6750
6 3555 1980 4815 3240
2 1 0 3 -1 -1 0 0 -1 0.000 0 0 -1 0 0 4
	 3600 3225 4800 3225 4800 2025 3600 2025
-6
6 4770 1980 6030 3240
2 1 0 3 -1 -1 0 0 -1 0.000 0 0 -1 0 0 4
	 4800 3225 6000 3225 6000 2025 4800 2025
-6
6 5985 1980 7245 3240
2 1 0 3 -1 -1 0 0 -1 0.000 0 0 -1 0 0 4
	 6000 3225 7200 3225 7200 2025 6000 2025
-6
6 7155 1980 8415 3240
2 1 0 3 -1 -1 0 0 -1 0.000 0 0 -1 0 0 4
	 7200 3225 8400 3225 8400 2025 7200 2025
-6
2 1 0 3 -1 -1 0 0 -1 0.000 0 0 -1 0 0 2
	 4800 2025 6000 3225
2 1 0 3 -1 -1 0 0 -1 0.000 0 0 -1 0 0 2
	 6000 3225 7200 2025
2 1 0 3 -1 -1 0 0 -1 0.000 0 0 -1 0 0 2
	 7200 3225 8400 2025
2 1 0 3 -1 -1 0 0 -1 0.000 0 0 -1 0 0 3
	 3600 3225 3600 2025 3675 2025
2 3 0 1 -1 -1 0 0 -1 0.000 0 0 -1 0 0 4
	 3450 3450 3750 3450 3600 3225 3450 3450
2 3 0 1 -1 -1 0 0 -1 0.000 0 0 -1 0 0 4
	 8250 3450 8550 3450 8400 3225 8250 3450
2 1 0 1 -1 -1 0 0 -1 0.000 0 0 -1 0 0 2
	 8250 3525 8550 3525
2 1 0 1 -1 -1 0 0 -1 0.000 0 0 -1 0 0 2
	 5250 2625 5400 2475
2 1 0 1 -1 -1 0 0 -1 0.000 0 0 -1 0 0 2
	 3600 3600 3600 6750
2 1 0 1 -1 -1 0 0 -1 0.000 0 0 -1 0 0 2
	 8400 3600 8400 6675
2 1 0 1 -1 -1 0 0 -1 0.000 0 0 -1 1 1 2
	0 0 1.00 60.00 120.00
	0 0 1.00 60.00 120.00
	 3600 3825 8400 3825
2 1 0 1 -1 -1 0 0 -1 0.000 0 0 -1 0 0 4
	 3600 5625 4800 6000 6000 4875 8400 5625
2 1 0 3 -1 -1 0 0 3 0.000 0 0 -1 0 0 2
	 3600 2025 4800 3225
2 2 0 1 0 7 100 0 50 0.000 0 0 -1 0 0 5
	 5175 4800 8400 4800 8400 4500 5175 4500 5175 4800
2 2 0 1 0 7 100 0 50 0.000 0 0 -1 0 0 5
	 3600 5400 5175 5400 5175 5100 3600 5100 3600 5400
2 1 0 1 0 7 100 0 -1 0.000 0 0 -1 0 0 2
	 6000 4500 6000 4200
2 1 0 1 0 7 100 0 -1 0.000 0 0 -1 0 0 2
	 4800 4725 4800 4200
2 1 0 1 0 7 100 0 -1 0.000 0 0 -1 0 0 2
	 5175 4425 5175 4200
2 1 0 1 0 7 100 0 -1 0.000 0 0 -1 1 1 2
	0 0 1.00 60.00 120.00
	0 0 1.00 60.00 120.00
	 4800 4350 5175 4350
2 1 0 1 0 7 100 0 -1 0.000 0 0 -1 1 1 2
	0 0 1.00 60.00 120.00
	0 0 1.00 60.00 120.00
	 5175 4350 6000 4350
2 1 0 1 0 7 100 0 -1 0.000 0 0 -1 0 0 2
	 5250 5850 5250 6675
2 1 0 1 0 7 100 0 -1 0.000 0 0 -1 1 1 2
	1 1 1.00 60.00 120.00
	1 1 1.00 60.00 120.00
	 3600 6525 5250 6525
2 1 0 1 0 7 100 0 -1 0.000 0 0 -1 1 1 2
	1 1 1.00 60.00 120.00
	1 1 1.00 60.00 120.00
	 5250 6525 8400 6525
2 1 0 1 0 7 100 0 -1 0.000 0 0 -1 0 0 3
	 6600 4500 6750 4275 7350 4275
2 1 0 1 0 7 100 0 -1 0.000 0 0 -1 0 0 3
	 3825 5100 3900 4950 4500 4950
3 0 0 1 -1 -1 0 0 -1 0.000 0 0 0 2
	 3600 5625 8475 5625
	 0.000 0.000
4 0 -1 0 0 0 20 0.0000 4 150 135 5475 2550 c\001
4 0 -1 0 0 0 20 0.0000 4 210 240 3225 3375 A\001
4 0 -1 0 0 0 20 0.0000 4 210 195 8625 3450 B\001
4 0 -1 0 0 0 20 0.0000 4 210 195 4875 1950 C\001
4 0 0 100 0 0 24 0.0000 4 255 180 5700 3750 4\001
4 0 0 100 0 0 24 0.0000 4 255 630 4650 4275 0.33\001
4 0 0 100 0 0 24 0.0000 4 255 630 5475 4275 0.66\001
4 0 0 100 0 0 24 0.0000 4 180 165 4350 6450 a\001
4 0 0 100 0 0 24 0.0000 4 255 180 6900 6450 b\001
4 0 0 100 0 0 24 0.0000 4 255 105 4125 4950 f\001
4 0 0 100 0 0 24 0.0000 4 255 105 6900 4275 f\001
4 0 0 100 0 0 24 0.0000 4 255 810 6000 5400 0.707\001
4 0 0 100 0 0 24 0.0000 4 255 1020 3675 6150 -0.354\001
-6
