#FIG 3.2
Landscape
Center
Inches
Letter  
100.00
Single
-2
1200 2
6 1125 1125 6075 3675
2 1 0 3 0 7 50 0 -1 0.000 0 0 -1 0 0 4
	 1200 3600 3600 1200 6000 3600 1200 3600
2 3 0 3 0 7 50 0 -1 0.000 0 0 -1 0 0 4
	 2400 2400 4800 2400 3600 3600 2400 2400
-6
6 5925 1125 10875 3675
2 1 0 3 0 7 50 0 -1 0.000 0 0 -1 0 0 4
	 10800 3600 8400 1200 6000 3600 10800 3600
2 3 0 3 0 7 50 0 -1 0.000 0 0 -1 0 0 4
	 9600 2400 7200 2400 8400 3600 9600 2400
-6
6 2925 975 3450 1350
4 0 0 50 0 0 32 0.0000 4 225 225 2925 1200 o\001
4 0 0 50 0 0 24 0.0000 4 255 240 3150 1350 II\001
-6
2 1 0 3 0 7 50 0 -1 0.000 0 0 -1 0 0 2
	 3600 1200 8400 1200
2 3 0 1 0 7 50 0 -1 0.000 0 0 -1 0 0 4
	 1050 3825 1200 3600 1350 3825 1050 3825
2 3 0 1 0 7 50 0 -1 0.000 0 0 -1 0 0 4
	 10650 3825 10800 3600 10950 3825 10650 3825
2 1 0 1 0 7 50 0 45 4.000 0 0 -1 0 0 2
	 10650 3900 10950 3900
2 3 0 1 0 7 50 0 45 4.000 0 0 -1 0 0 5
	 3825 1275 6075 3525 10575 3525 8325 1275 3825 1275
2 3 0 1 0 7 50 0 45 4.000 0 0 -1 0 0 4
	 1425 3525 2216 2396 3345 3186 1425 3525
2 3 0 1 0 7 50 0 45 4.000 0 0 -1 0 0 4
	 2471 2141 3600 1350 4391 2479 2471 2141
4 0 0 50 0 0 32 0.0000 4 330 150 2100 3375 I\001
4 0 0 50 0 0 32 0.0000 4 330 300 3525 2175 II\001
4 0 0 50 0 0 32 0.0000 4 330 450 7050 2550 III\001
4 0 0 50 0 0 32 0.0000 4 225 1080 1200 4200 o  = o\001
4 0 0 50 0 0 24 0.0000 4 255 120 1425 4350 I\001
4 0 0 50 0 0 24 0.0000 4 300 585 2325 4350 I,III\001
4 0 0 50 0 0 32 0.0000 4 330 225 3525 4050 2\001
4 0 0 50 0 0 32 0.0000 4 330 225 5850 4050 3\001
4 0 0 50 0 0 32 0.0000 4 330 225 2100 2400 5\001
4 0 0 50 0 0 32 0.0000 4 330 225 4725 2850 4\001
