#FIG 3.2
Landscape
Center
Inches
Letter  
100.00
Single
-2
1200 2
6 2475 3075 3000 3450
4 0 0 100 0 32 32 0.0000 4 345 225 2475 3450 d\001
4 0 0 100 0 0 32 0.0000 4 225 255 2700 3450 u\001
-6
6 2400 3975 2925 4350
4 0 0 100 0 32 32 0.0000 4 345 225 2400 4350 d\001
4 0 0 100 0 0 32 0.0000 4 225 255 2625 4350 u\001
-6
1 3 0 1 0 7 100 0 -1 0.000 1 0.0000 3675 3600 75 75 3675 3600 3750 3600
2 1 0 3 0 7 100 0 -1 0.000 0 0 -1 0 0 2
	 3750 3600 6000 3600
2 3 0 1 0 7 100 0 -1 0.000 0 0 -1 0 0 4
	 1125 6150 1200 6000 1275 6150 1125 6150
2 3 0 1 0 7 100 0 -1 0.000 0 0 -1 0 0 4
	 5925 3750 6000 3600 6075 3750 5925 3750
2 1 0 1 0 7 100 0 -1 0.000 0 0 -1 1 1 2
	1 1 1.00 60.00 120.00
	1 1 1.00 60.00 120.00
	 1200 6525 3675 6525
2 1 0 1 0 7 100 0 -1 0.000 0 0 -1 1 1 2
	1 1 1.00 60.00 120.00
	1 1 1.00 60.00 120.00
	 3675 6525 6000 6525
2 1 0 1 0 7 100 0 -1 0.000 0 0 -1 1 1 2
	1 1 1.00 60.00 120.00
	1 1 1.00 60.00 120.00
	 6675 6075 6675 3600
2 1 0 1 0 7 100 0 -1 0.000 0 0 -1 0 0 2
	 3150 3150 3150 2700
2 1 0 1 0 7 100 0 -1 0.000 0 0 -1 0 0 2
	 3675 3150 3675 2700
2 1 0 1 0 7 100 0 -1 0.000 0 0 -1 1 0 2
	1 1 1.00 60.00 120.00
	 3150 3000 3675 3000
2 1 0 1 0 7 100 0 -1 0.000 0 0 -1 1 0 2
	1 1 1.00 60.00 120.00
	 1650 4500 1425 4425
2 1 0 1 0 7 100 0 -1 0.000 0 0 -1 0 0 2
	 3150 3225 1575 3225
2 1 0 1 0 7 100 0 -1 0.000 0 0 -1 0 0 2
	 3150 3600 1650 3600
2 1 0 1 0 7 100 0 -1 0.000 0 0 -1 1 0 2
	1 1 1.00 60.00 120.00
	 1725 3600 1725 3225
2 1 1 3 0 7 100 0 -1 8.000 0 0 -1 0 0 2
	 3786 3200 6002 3591
2 1 0 2 0 7 100 0 -1 0.000 0 0 -1 1 0 2
	1 1 2.00 120.00 240.00
	 3675 3600 3150 3225
2 1 0 1 0 7 100 0 -1 0.000 0 0 -1 1 0 2
	1 1 1.00 60.00 120.00
	 2700 3150 2925 3150
2 1 0 1 0 7 100 0 -1 4.000 0 0 -1 0 0 2
	 1950 2850 1950 7725
2 1 0 2 0 7 100 0 -1 6.000 0 0 -1 1 0 2
	1 1 2.00 120.00 240.00
	 1950 4200 1575 4125
2 1 0 1 0 7 100 0 -1 4.000 0 0 -1 0 0 2
	 1500 4125 1200 4125
2 1 0 1 0 7 100 0 -1 4.000 0 0 -1 0 0 2
	 1500 4275 1200 4275
2 1 0 1 0 7 100 0 -1 4.000 0 0 -1 1 0 2
	1 1 1.00 60.00 120.00
	 1275 4275 1275 4125
2 1 0 1 0 7 100 0 -1 0.000 0 0 -1 0 0 2
	 1200 7125 6000 7125
2 1 0 2 0 7 100 0 -1 6.000 0 0 -1 0 0 3
	 1200 7125 3675 8025 6000 7125
2 1 0 1 0 7 100 0 -1 4.000 0 0 -1 1 0 2
	1 1 1.00 60.00 120.00
	 4125 3600 4125 3225
2 1 0 2 0 7 100 0 -1 6.000 0 0 -1 1 0 2
	1 1 2.00 120.00 240.00
	 2625 3900 2175 3750
2 1 0 1 0 7 100 0 -1 0.000 0 0 -1 1 0 2
	1 1 1.00 60.00 120.00
	 2625 4050 2850 4050
2 1 0 2 0 7 100 0 -1 6.000 0 0 -1 1 0 2
	1 1 2.00 120.00 240.00
	 1950 2250 1950 3000
2 1 0 1 0 7 100 0 -1 4.000 0 0 -1 1 0 2
	1 1 1.00 60.00 120.00
	 1200 2550 1950 2550
2 1 0 1 0 7 100 0 -1 4.000 0 0 -1 0 1 2
	1 1 1.00 60.00 120.00
	 1951 2433 6000 2400
2 1 0 1 0 7 100 0 -1 0.000 0 0 -1 0 0 2
	 1200 3225 1200 2325
2 1 0 1 0 7 100 0 -1 0.000 0 0 -1 0 0 2
	 6000 3150 6000 2250
3 0 0 1 0 7 100 0 -1 0.000 0 0 0 2
	 1200 6225 1200 7425
	 0.000 0.000
3 0 0 1 0 7 100 0 -1 0.000 0 0 0 2
	 6000 4275 6000 7725
	 0.000 0.000
3 0 0 1 0 7 100 0 -1 0.000 0 0 0 2
	 6225 3600 6675 3600
	 0.000 0.000
3 0 0 1 0 7 100 0 -1 0.000 0 0 0 2
	 5625 6075 6750 6075
	 0.000 0.000
3 0 0 1 0 7 100 0 -1 0.000 0 0 0 2
	 3675 4875 3675 8025
	 0.000 0.000
3 0 0 3 0 7 100 0 -1 0.000 0 0 0 3
	 1200 6000 1500 4050 3600 3600
	 0.000 1.000 0.000
3 0 1 3 0 7 100 0 -1 8.000 0 0 0 3
	 1243 6022 1200 4050 3190 3242
	 0.000 1.000 0.000
4 0 0 100 0 0 32 0.0000 4 330 330 1575 5850 A\001
4 0 0 100 0 0 32 0.0000 4 330 315 5625 4125 B\001
4 0 0 100 0 0 32 0.0000 4 330 315 3900 4050 C\001
4 0 0 100 0 0 32 0.0000 4 225 210 2250 6450 a\001
4 0 0 100 0 0 32 0.0000 4 330 225 4725 6450 b\001
4 0 0 100 0 0 32 1.5708 4 330 255 6600 5025 h\001
4 0 0 100 0 0 32 0.0000 4 330 300 4800 4125 II\001
4 0 0 100 0 0 32 0.0000 4 225 225 1350 6375 o\001
4 0 0 100 0 0 32 0.0000 4 225 225 6150 4050 o\001
4 0 0 100 0 0 32 0.0000 4 225 255 3225 2850 u\001
4 0 0 100 0 32 32 0.0000 4 345 225 3000 2850 d\001
4 0 0 100 0 0 32 0.0000 4 225 255 1050 3600 u\001
4 0 0 100 0 32 32 0.0000 4 345 225 825 3600 d\001
4 0 0 100 0 32 24 0.0000 4 255 120 1275 3450 I\001
4 0 0 100 0 32 24 0.0000 4 255 120 3450 2700 I\001
4 0 0 100 0 0 24 0.0000 4 255 165 1275 3750 y\001
4 0 0 100 0 0 24 0.0000 4 180 195 3450 2925 x\001
4 0 0 100 0 32 24 0.0000 4 255 120 2925 3375 I\001
4 0 0 100 0 0 32 0.0000 4 330 150 1575 5250 I\001
4 0 0 100 0 32 32 0.0000 4 345 225 600 4275 d\001
4 0 0 100 0 0 32 0.0000 4 225 255 825 4275 u\001
4 0 0 100 0 0 24 0.0000 4 255 165 1050 4350 y\001
4 0 0 100 0 0 32 0.0000 4 390 870 3750 7575 -x/a\001
4 0 0 100 0 0 24 0.0000 4 255 240 6375 4125 II\001
4 0 0 100 0 0 24 0.0000 4 255 120 1575 6525 I\001
4 0 0 100 0 0 24 0.0000 4 255 120 1350 4950 I\001
4 0 0 100 0 32 32 0.0000 4 450 495 825 4800 df\001
4 0 0 100 0 32 32 0.0000 4 450 750 4200 3225 -df\001
4 0 0 100 0 0 24 0.0000 4 255 240 4950 3375 II\001
4 0 0 100 0 0 32 0.0000 4 330 315 2400 7050 C\001
4 0 0 100 0 0 24 0.0000 4 180 195 2700 7125 x\001
4 0 0 100 0 32 32 0.0000 4 360 285 2100 7050 h\001
4 0 0 100 0 0 32 0.0000 4 330 225 2100 2925 1\001
4 0 0 100 0 0 32 0.0000 4 330 405 3825 2325 x'\001
4 0 0 100 0 0 32 0.0000 4 225 255 1500 2475 x\001
