#FIG 3.2
Landscape
Center
Inches
Letter  
100.00
Single
-2
1200 2
6 3780 7020 8730 9090
1 4 0 1 -1 -1 0 0 -1 0.000 1 0.0000 6300 7725 75 75 6225 7725 6375 7725
1 4 0 1 -1 -1 0 0 -1 0.000 1 0.0000 5025 9000 75 75 5025 9075 5025 8925
1 4 0 1 -1 -1 0 0 -1 0.000 1 0.0000 7425 9000 75 75 7350 9000 7500 9000
2 1 0 1 -1 -1 0 0 -1 0.000 0 0 -1 1 0 2
	0 0 1.00 60.00 120.00
	 6225 7050 6225 7575
2 1 0 1 -1 -1 0 0 -1 0.000 0 0 -1 1 0 2
	0 0 1.00 60.00 120.00
	 6375 7050 6375 7575
2 1 0 1 -1 -1 0 0 -1 0.000 0 0 -1 1 0 2
	0 0 1.00 60.00 120.00
	 5025 7125 5025 7650
2 1 0 1 -1 -1 0 0 -1 0.000 0 0 -1 1 0 2
	0 0 1.00 60.00 120.00
	 7500 7125 7500 7650
2 1 0 1 -1 -1 0 0 -1 0.000 0 0 -1 0 0 2
	 3825 8100 6300 7350
2 1 0 1 -1 -1 0 0 -1 0.000 0 0 -1 0 0 2
	 6225 8100 8700 7350
2 1 0 3 -1 -1 0 0 -1 0.000 0 0 -1 0 0 2
	 3825 7725 6225 7725
2 1 0 3 -1 -1 0 0 -1 0.000 0 0 -1 0 0 2
	 5025 7725 5025 8925
2 1 0 3 -1 -1 0 0 -1 0.000 0 0 -1 0 0 3
	 6375 7725 8625 7725 7425 8925
4 0 -1 0 0 0 18 0.0000 4 225 345 6525 7650 1/2\001
4 0 -1 0 0 0 18 0.0000 4 225 345 5700 8100 1/2\001
-6
6 3780 9225 8730 11340
1 4 0 1 -1 -1 0 0 -1 0.000 1 0.0000 6300 9975 75 75 6225 9975 6375 9975
1 4 0 1 -1 -1 0 0 -1 0.000 1 0.0000 5025 11250 75 75 5025 11325 5025 11175
1 4 0 1 -1 -1 0 0 -1 0.000 1 0.0000 7425 11250 75 75 7350 11250 7500 11250
2 1 0 1 -1 -1 0 0 -1 0.000 0 0 -1 1 0 2
	0 0 1.00 60.00 120.00
	 5025 9375 5025 9900
2 1 0 1 -1 -1 0 0 -1 0.000 0 0 -1 1 0 2
	0 0 1.00 60.00 120.00
	 6300 9300 6300 9825
2 1 0 1 -1 -1 0 0 -1 0.000 0 0 -1 1 0 2
	0 0 1.00 60.00 120.00
	 7500 9375 7500 9900
2 1 0 1 -1 -1 0 0 -1 0.000 0 0 -1 1 0 2
	0 0 1.00 60.00 120.00
	 8700 9300 8700 9825
2 1 0 1 -1 -1 0 0 -1 0.000 0 0 -1 0 0 4
	 3825 10425 6300 9525 7500 9975 8700 9525
2 1 0 3 -1 -1 0 0 -1 0.000 0 0 -1 0 0 2
	 3825 9975 6225 9975
2 1 0 3 -1 -1 0 0 -1 0.000 0 0 -1 0 0 2
	 5025 9975 5025 11175
2 1 0 3 -1 -1 0 0 -1 0.000 0 0 -1 0 0 3
	 6375 9975 8625 9975 7425 11175
4 0 -1 0 0 0 18 0.0000 4 195 285 6450 9450 -2\001
4 0 -1 0 0 0 18 0.0000 4 195 285 8325 9525 -2\001
-6
1 3 0 1 -1 -1 0 0 -1 0.000 1 0.0000 4275 2850 210 210 4275 2850 4485 3060
1 3 0 1 -1 -1 0 0 -1 0.000 1 0.0000 7125 2850 240 240 7125 2850 7365 3090
1 4 0 1 -1 -1 0 0 -1 0.000 1 0.0000 6075 2400 75 75 6000 2400 6150 2400
1 4 0 1 -1 -1 0 0 -1 0.000 1 0.0000 4800 3675 75 75 4800 3750 4800 3600
1 4 0 1 -1 -1 0 0 -1 0.000 1 0.0000 7200 3675 75 75 7125 3675 7275 3675
1 4 0 1 -1 -1 0 0 -1 0.000 1 0.0000 6225 5400 75 75 6150 5400 6300 5400
1 4 0 1 -1 -1 0 0 -1 0.000 1 0.0000 4950 6675 75 75 4950 6750 4950 6600
1 4 0 1 -1 -1 0 0 -1 0.000 1 0.0000 7350 6675 75 75 7275 6675 7425 6675
2 1 0 3 -1 -1 0 0 -1 0.000 0 0 -1 0 0 2
	 3600 2400 6000 2400
2 1 0 1 -1 -1 0 0 -1 0.000 0 0 -1 0 0 2
	 3600 2775 3600 4275
2 1 0 1 -1 -1 0 0 -1 0.000 0 0 -1 0 0 3
	 4800 3900 4800 4275 4800 4200
2 1 0 1 -1 -1 0 0 -1 0.000 0 0 -1 0 0 2
	 6075 2850 6075 4275
2 1 0 1 -1 -1 0 0 -1 0.000 0 0 -1 0 0 2
	 7200 3750 7200 4200
2 1 0 1 -1 -1 0 0 -1 0.000 0 0 -1 0 0 2
	 8400 3000 8400 4275
2 1 0 1 -1 -1 0 0 -1 0.000 0 0 -1 0 0 2
	 8850 2400 9300 2400
2 1 0 1 -1 -1 0 0 -1 0.000 0 0 -1 0 0 2
	 7875 3600 9300 3600
2 1 0 1 -1 -1 0 0 -1 0.000 0 0 -1 1 1 2
	0 0 1.00 60.00 120.00
	0 0 1.00 60.00 120.00
	 3600 4125 4800 4125
2 1 0 1 -1 -1 0 0 -1 0.000 0 0 -1 1 1 2
	0 0 1.00 60.00 120.00
	0 0 1.00 60.00 120.00
	 4800 4125 6075 4125
2 1 0 1 -1 -1 0 0 -1 0.000 0 0 -1 1 1 2
	0 0 1.00 60.00 120.00
	0 0 1.00 60.00 120.00
	 6075 4125 7200 4125
2 1 0 1 -1 -1 0 0 -1 0.000 0 0 -1 1 1 2
	0 0 1.00 60.00 120.00
	0 0 1.00 60.00 120.00
	 7200 4125 8400 4125
2 1 0 1 -1 -1 0 0 -1 0.000 0 0 -1 1 1 2
	0 0 1.00 60.00 120.00
	0 0 1.00 60.00 120.00
	 9075 2400 9075 3600
2 1 0 1 -1 -1 0 0 -1 0.000 0 0 -1 1 0 2
	0 0 1.00 60.00 120.00
	 4950 4725 4950 5250
2 1 0 1 -1 -1 0 0 -1 0.000 0 0 -1 1 0 2
	0 0 1.00 60.00 120.00
	 6225 4725 6225 5250
2 1 0 1 -1 -1 0 0 -1 0.000 0 0 -1 0 0 3
	 3750 5850 6225 4950 8550 5850
2 1 0 1 -1 -1 0 0 -1 0.000 0 0 -1 1 0 2
	0 0 1.00 60.00 120.00
	 7425 4725 7425 5250
2 1 0 3 -1 -1 0 0 -1 0.000 0 0 -1 0 0 2
	 4800 2400 4800 3600
2 1 0 3 -1 -1 0 0 -1 0.000 0 0 -1 0 0 3
	 6150 2400 8400 2400 7200 3600
2 1 0 3 -1 -1 0 0 -1 0.000 0 0 -1 0 0 2
	 3750 5400 6150 5400
2 1 0 3 -1 -1 0 0 -1 0.000 0 0 -1 0 0 2
	 4950 5400 4950 6600
2 1 0 3 -1 -1 0 0 -1 0.000 0 0 -1 0 0 3
	 6300 5400 8550 5400 7350 6600
2 1 0 1 0 7 50 0 -1 0.000 0 0 -1 0 0 2
	 7200 2250 7200 2550
4 0 -1 0 0 0 24 0.0000 4 255 120 4200 3000 I\001
4 0 -1 0 0 0 24 0.0000 4 255 240 7050 3000 II\001
4 0 -1 0 0 0 18 0.0000 4 195 225 4950 3825 A\001
4 0 -1 0 0 0 18 0.0000 4 195 180 7350 3900 B\001
4 0 -1 0 0 0 18 0.0000 4 195 135 3975 4050 4\001
4 0 -1 0 0 0 18 0.0000 4 195 135 5400 4050 4\001
4 0 -1 0 0 0 18 0.0000 4 195 135 6600 4050 4\001
4 0 -1 0 0 0 18 0.0000 4 195 135 7725 4050 4\001
4 0 -1 0 0 0 18 1.5710 4 195 135 9000 3150 4\001
4 0 -1 0 0 0 18 0.0000 4 225 345 6450 5025 1/2\001
4 0 0 50 0 0 18 0.0000 4 195 135 7350 2700 d\001
4 0 -1 0 0 0 18 0.0000 4 195 180 5775 2775 C\001
