#FIG 3.2  Produced by xfig version 3.2.6a
Landscape
Center
Metric
A4
100.00
Single
-2
1200 2
2 1 0 1 0 7 50 -1 -1 4.000 0 0 -1 1 0 2
	1 1 1.00 60.00 120.00
	 9000 4500 10215 4500
2 1 0 1 0 7 50 -1 -1 4.000 0 0 -1 1 0 2
	1 1 1.00 60.00 120.00
	 4500 0 4500 -495
2 1 0 1 0 7 50 -1 -1 4.000 0 0 -1 1 0 2
	1 1 1.00 60.00 120.00
	 9000 0 9675 -900
2 1 0 1 0 7 50 -1 -1 4.000 0 0 -1 1 0 2
	1 1 1.00 60.00 120.00
	 4500 0 4725 -945
2 1 1 1 0 7 50 -1 -1 4.000 0 0 -1 1 0 2
	1 1 1.00 60.00 120.00
	 9000 4500 9450 4500
2 1 1 1 0 7 50 -1 -1 4.000 0 0 -1 0 0 3
	 9360 4500 9675 -900 4680 -900
2 1 1 1 0 7 50 -1 -1 4.000 0 0 -1 0 0 2
	 4770 -900 4500 4500
2 1 0 2 0 7 50 -1 -1 6.000 0 0 -1 1 0 2
	1 1 1.00 60.00 120.00
	 4500 4500 5490 180
2 1 0 2 0 7 50 -1 -1 6.000 0 0 -1 1 0 2
	1 1 1.00 60.00 120.00
	 4500 4500 8865 5535
2 1 0 3 0 7 50 -1 -1 8.000 0 0 -1 0 0 2
	 5188 808 4358 4403
2 1 0 3 0 7 50 -1 -1 8.000 0 0 -1 0 0 2
	 4458 4615 6037 4979
2 2 0 1 0 7 50 -1 -1 0.000 0 0 -1 0 0 5
	 4500 4500 9000 4500 9000 0 4500 0 4500 4500
4 0 0 50 -1 0 24 0.0000 4 270 210 8910 4860 1\001
4 0 0 50 -1 0 24 0.0000 4 270 210 4140 180 1\001
4 0 0 50 -1 1 24 0.0000 4 255 180 4230 -315 y\001
4 0 0 50 -1 1 24 0.0000 4 180 180 9900 4815 x\001
4 0 0 50 -1 0 24 0.0000 4 270 210 4275 4860 0\001
4 0 0 50 -1 0 24 6.0912 4 270 735 5309 5298 1.88\001
4 0 0 50 -1 32 24 6.0039 4 210 405 4860 5130 e=\001
4 0 0 50 -1 3 24 0.0000 4 180 225 5490 630 n\001
4 0 0 50 -1 3 18 0.0000 4 195 150 5670 765 1\001
4 0 0 50 -1 3 24 0.0000 4 180 225 8685 5400 n\001
4 0 0 50 -1 3 18 0.0000 4 195 150 8910 5490 2\001
4 0 0 50 -1 32 24 1.2915 4 300 735 4905 1485 4.12\001
4 0 0 50 -1 32 24 1.2566 4 210 405 4770 1935 e=\001
