#FIG 3.2  Produced by xfig version 3.2.5b
Landscape
Center
Metric
A4      
100.00
Single
-2
1200 2
5 1 0 1 0 7 50 -1 -1 4.000 0 1 1 0 7171.515 4887.424 8235 5265 8220 4470 7875 4005
	1 1 1.00 60.00 120.00
2 1 0 2 0 7 50 -1 -1 0.000 0 0 -1 1 0 2
	1 1 2.00 120.00 240.00
	 1845 4860 3780 4095
2 1 0 2 0 7 50 -1 -1 0.000 0 0 -1 1 0 2
	1 1 2.00 120.00 240.00
	 7200 4860 8145 3645
2 1 0 2 0 7 50 -1 -1 0.000 0 0 -1 1 0 2
	1 1 2.00 120.00 240.00
	 7200 4860 10035 5940
2 1 0 1 0 7 50 -1 -1 0.000 0 0 -1 1 0 2
	1 1 1.00 60.00 120.00
	 4815 5535 6525 5535
2 1 0 1 0 7 50 -1 -1 0.000 0 0 -1 1 0 2
	1 1 1.00 60.00 120.00
	 4860 5535 4860 4185
2 1 0 1 0 7 50 -1 -1 0.000 0 0 -1 0 0 2
	 8143 3651 10978 4731
2 1 0 1 0 7 50 -1 -1 0.000 0 0 -1 0 0 2
	 10035 5940 10980 4725
2 1 0 2 0 7 50 -1 -1 6.000 0 0 -1 1 0 2
	1 1 2.00 120.00 240.00
	 7200 4860 10980 4740
2 1 1 1 0 7 50 -1 -1 4.000 0 0 -1 0 0 3
	 1860 4860 3750 4860 3750 4080
4 0 0 50 -1 3 32 0.0000 4 375 270 9720 5715 b\001
4 0 0 50 -1 3 32 0.0000 4 240 270 7695 3780 a\001
4 0 0 50 -1 3 32 0.0000 4 240 270 3330 4095 a\001
4 0 0 50 -1 3 32 0.0000 4 375 855 9045 4710 a+b\001
4 0 0 50 -1 1 32 0.0000 4 240 240 6345 5910 x\001
4 0 0 50 -1 1 32 0.0000 4 345 240 4530 4530 y\001
4 0 0 50 -1 1 32 0.0000 4 240 270 2565 5265 a\001
4 0 0 50 -1 1 32 0.0000 4 240 270 3735 4590 a\001
4 0 0 50 -1 32 32 0.0000 4 285 345 7755 4560 a\001
4 0 0 50 -1 1 24 0.0000 4 180 180 2805 5340 x\001
4 0 0 50 -1 1 24 0.0000 4 255 180 3975 4665 y\001
