#FIG 3.2  Produced by xfig version 3.2.6a
Landscape
Center
Metric
A4
100.00
Single
-2
1200 2
6 5265 2475 6075 2835
2 1 0 1 0 7 50 -1 -1 0.000 0 0 -1 0 0 4
	 5715 2520 5670 2835 5850 2475 6075 2475
4 0 0 50 -1 1 24 0.0000 4 285 750 5265 2835 1/  2\001
-6
6 4590 4185 4950 4995
2 1 0 1 0 7 50 -1 -1 0.000 0 0 -1 0 0 4
	 4635 4545 4950 4590 4590 4410 4590 4185
4 0 0 50 -1 1 24 1.5708 4 285 750 4950 4995 1/  2\001
-6
2 1 0 1 0 7 50 -1 -1 0.000 0 0 -1 1 0 2
	1 1 1.00 60.00 120.00
	 6750 4500 6750 225
2 1 0 1 0 7 50 -1 -1 0.000 0 0 -1 1 0 2
	1 1 1.00 60.00 120.00
	 6750 4500 11025 6255
2 1 0 1 0 7 50 -1 -1 0.000 0 0 -1 1 0 2
	1 1 1.00 60.00 120.00
	 6795 4500 2970 6210
2 1 1 1 0 7 50 -1 -1 4.000 0 0 -1 0 0 3
	 5085 5265 5085 3195 6750 2430
2 1 1 1 0 7 50 -1 -1 4.000 0 0 -1 0 0 3
	 5085 5265 5085 7560 6885 6660
2 1 1 1 0 7 50 -1 -1 4.000 0 0 -1 0 0 2
	 6750 4500 6750 7425
2 1 0 3 0 7 50 -1 -1 8.000 0 0 -1 1 0 2
	1 1 3.00 180.00 360.00
	 6750 4500 9405 5580
2 1 0 3 0 7 50 -1 -1 8.000 0 0 -1 1 0 2
	1 1 3.00 180.00 360.00
	 6795 4500 5085 3195
2 1 0 3 0 7 50 -1 -1 8.000 0 0 -1 1 0 2
	1 1 3.00 180.00 360.00
	 6795 4500 5085 7560
2 1 0 1 0 7 50 -1 -1 4.000 0 0 -1 1 0 2
	1 1 1.00 60.00 120.00
	 4410 6885 4770 6885
2 1 0 1 0 7 50 -1 -1 4.000 0 0 -1 1 0 2
	1 1 1.00 60.00 120.00
	 4590 3375 4905 3375
2 1 0 1 0 7 50 -1 -1 4.000 0 0 -1 1 0 2
	1 1 1.00 60.00 120.00
	 8910 4815 9270 4815
4 0 0 50 -1 1 32 0.0000 4 240 240 3105 6615 x\001
4 0 0 50 -1 1 32 0.0000 4 345 240 10170 6570 y\001
4 0 0 50 -1 1 32 0.0000 4 270 210 6975 1890 z\001
4 0 0 50 -1 1 32 0.0000 4 240 270 4365 7245 n\001
4 0 0 50 -1 1 32 0.0000 4 240 270 4545 3690 n\001
4 0 0 50 -1 1 32 0.0000 4 240 270 8820 5130 n\001
4 0 0 50 -1 1 24 0.0000 4 270 210 9090 5265 3\001
4 0 0 50 -1 1 24 0.0000 4 285 210 4725 3825 1\001
4 0 0 50 -1 1 24 0.0000 4 270 210 4590 7380 2\001
