#FIG 3.2  Produced by xfig version 3.2.6a
Landscape
Center
Metric
A4
100.00
Single
-2
1200 2
5 1 0 1 0 7 50 -1 -1 4.000 0 0 0 0 4244.385 4366.844 3285 3960 4140 3330 4950 3600
5 1 0 1 0 7 50 -1 -1 4.000 0 0 0 0 4308.584 4485.441 3510 4095 4230 3600 4950 3870
6 5490 3060 6120 3375
4 0 0 50 -1 32 24 0.0000 4 195 240 5490 3285 s\001
4 0 0 50 -1 1 18 0.0000 4 240 375 5715 3330 n,1\001
-6
6 4050 3915 4680 4230
4 0 0 50 -1 32 24 0.0000 4 195 240 4050 4140 s\001
4 0 0 50 -1 1 18 0.0000 4 240 375 4275 4185 n,2\001
-6
6 3375 4320 4005 4635
4 0 0 50 -1 32 24 0.0000 4 195 240 3375 4545 s\001
4 0 0 50 -1 1 18 0.0000 4 255 375 3600 4590 n,3\001
-6
2 1 0 1 0 7 50 -1 -1 0.000 0 0 -1 1 0 2
	1 1 1.00 60.00 120.00
	 4500 4500 9180 4500
2 1 0 1 0 7 50 -1 -1 0.000 0 0 -1 1 0 2
	1 1 1.00 60.00 120.00
	 4500 4500 945 5850
2 1 1 1 0 7 50 -1 -1 4.000 0 0 -1 0 0 2
	 4500 4500 810 4500
2 1 1 1 0 7 50 -1 -1 4.000 0 0 -1 0 0 2
	 4500 4500 7560 3330
2 1 1 1 0 7 50 -1 -1 4.000 0 0 -1 0 0 4
	 4500 4500 7200 3465 6975 3510 6975 900
2 1 0 1 0 7 50 -1 -1 4.000 0 0 -1 1 0 2
	1 1 1.00 60.00 120.00
	 4500 4500 6975 900
2 1 1 1 0 7 50 -1 -1 4.000 0 0 -1 0 0 4
	 4545 4500 3150 4995 6255 4995 6255 1395
2 1 0 1 0 7 50 -1 -1 4.000 0 0 -1 1 0 2
	1 1 1.00 60.00 120.00
	 4500 4500 6255 1305
2 1 1 1 0 7 50 -1 -1 4.000 0 0 -1 0 0 4
	 4500 4500 3240 4950 -135 4950 -135 2520
2 1 0 1 0 7 50 -1 -1 4.000 0 0 -1 1 0 2
	1 1 1.00 60.00 120.00
	 4500 4500 -180 2520
2 1 0 1 0 7 50 -1 -1 4.000 0 0 -1 0 0 2
	 5265 3105 5400 3195
2 1 0 3 0 7 50 -1 -1 8.000 0 0 -1 0 0 2
	 4560 4510 6109 2299
2 1 0 3 0 7 50 -1 -1 8.000 0 0 -1 0 0 2
	 4500 4410 4748 3982
2 1 0 3 0 7 50 -1 -1 8.000 0 0 -1 0 0 2
	 3769 4269 4479 4555
2 1 0 1 0 7 50 -1 -1 0.000 0 0 -1 1 0 2
	1 1 1.00 60.00 120.00
	 4500 4500 4500 675
4 0 0 50 -1 3 24 0.0000 4 180 225 6570 1035 n\001
4 0 0 50 -1 3 24 0.0000 4 180 210 1035 6120 x\001
4 0 0 50 -1 3 24 0.0000 4 270 180 9000 4815 y\001
4 0 0 50 -1 3 24 0.0000 4 210 165 4590 900 z\001
4 0 0 50 -1 3 18 0.0000 4 195 150 6750 1125 1\001
4 0 0 50 -1 3 24 0.0000 4 180 225 5760 1350 n\001
4 0 0 50 -1 3 18 0.0000 4 195 150 5940 1485 2\001
4 0 0 50 -1 3 24 0.0000 4 180 225 45 2520 n\001
4 0 0 50 -1 3 18 0.0000 4 195 150 225 2610 3\001
4 0 0 50 -1 3 32 0.0000 4 75 135 4140 3510 .\001
4 0 0 50 -1 3 32 0.0000 4 75 135 5175 3375 .\001
4 0 0 50 -1 3 32 0.0000 4 75 135 4050 3870 .\001
