#FIG 3.2  Produced by xfig version 3.2.5c
Landscape
Center
Inches
Letter  
100.00
Single
-2
1200 2
2 2 0 3 0 7 50 -1 -1 0.000 0 0 -1 0 0 5
	 3540 1215 3615 1215 3615 4050 3540 4050 3540 1215
2 1 0 1 0 7 50 -1 -1 0.000 0 0 -1 0 1 2
	1 1 1.00 60.00 120.00
	 3885 1050 5760 2505
2 1 0 1 0 7 50 -1 -1 0.000 0 0 -1 0 1 2
	1 1 1.00 60.00 120.00
	 3615 1200 5760 2490
2 1 0 1 0 7 50 -1 -1 0.000 0 0 -1 0 1 2
	1 1 1.00 60.00 120.00
	 3615 4050 5745 2505
2 1 0 1 0 7 50 -1 -1 0.000 0 0 -1 0 1 2
	1 1 1.00 60.00 120.00
	 3930 4230 5745 2490
2 2 0 3 0 7 50 -1 -1 0.000 0 0 -1 0 0 5
	 2115 1185 5040 1185 5040 1050 2115 1050 2115 1185
2 2 0 3 0 7 50 -1 -1 0.000 0 0 -1 0 0 5
	 2100 4215 5025 4215 5025 4080 2100 4080 2100 4215
2 1 0 1 0 7 50 -1 -1 0.000 0 0 -1 0 0 2
	 2115 4410 2115 5145
2 1 0 1 0 7 50 -1 -1 0.000 0 0 -1 0 0 2
	 5025 4365 5025 5100
2 1 0 1 0 7 50 -1 -1 0.000 0 0 -1 0 0 2
	 5250 4215 7440 4215
2 1 0 1 0 7 50 -1 -1 0.000 0 0 -1 0 0 2
	 5250 4080 7440 4080
2 1 0 1 0 7 50 -1 -1 0.000 0 0 -1 0 0 2
	 5265 1185 7455 1185
2 1 0 1 0 7 50 -1 -1 0.000 0 0 -1 0 0 2
	 5265 1065 7455 1065
2 1 0 1 0 7 50 -1 -1 0.000 0 0 -1 1 1 2
	1 1 1.00 60.00 120.00
	1 1 1.00 60.00 120.00
	 2115 4935 5025 4935
2 1 0 1 0 7 50 -1 -1 0.000 0 0 -1 1 1 2
	1 1 1.00 60.00 120.00
	1 1 1.00 60.00 120.00
	 6915 4080 6915 1185
2 1 0 1 0 7 50 -1 -1 0.000 0 0 -1 0 1 2
	1 1 1.00 60.00 120.00
	 6915 1065 6915 645
2 1 0 1 0 7 50 -1 -1 0.000 0 0 -1 0 1 2
	1 1 1.00 60.00 120.00
	 6930 4245 6930 4770
2 1 0 1 0 7 50 -1 -1 0.000 0 0 -1 0 1 2
	1 1 1.00 60.00 120.00
	 3525 2490 2790 2490
2 1 0 1 0 7 50 -1 -1 0.000 0 0 -1 0 1 2
	1 1 1.00 60.00 120.00
	 3630 2505 4350 2505
4 0 0 50 -1 0 20 0.0000 4 225 420 3255 4875 0.2\001
4 0 0 50 -1 0 20 1.5708 4 225 585 6840 990 0.01\001
4 0 0 50 -1 0 20 1.5708 4 225 585 6855 4995 0.01\001
4 0 0 50 -1 0 20 1.5708 4 225 585 6825 3000 0.18\001
4 0 0 50 -1 0 20 0.0000 4 240 750 3765 2400 0.005\001
