#FIG 3.2  Produced by xfig version 3.2.5c
Landscape
Center
Inches
Letter  
100.00
Single
-2
1200 2
2 1 0 1 0 7 50 -1 -1 0.000 0 0 -1 0 0 2
	 1200 600 1200 3900
2 1 0 1 0 7 50 -1 -1 0.000 0 0 -1 0 0 2
	 1200 1200 6000 1200
2 1 0 1 0 7 50 -1 -1 0.000 0 0 -1 0 0 2
	 1200 2400 6000 1200
2 1 0 1 0 7 50 -1 -1 0.000 0 0 -1 0 0 2
	 1200 3600 6000 1200
2 1 0 2 0 7 50 -1 -1 6.000 0 0 -1 1 0 2
	1 1 2.00 120.00 240.00
	 6000 1050 6000 525
2 1 0 1 0 7 50 -1 -1 4.000 0 0 -1 0 0 2
	 1200 4125 1200 4575
2 1 0 1 0 7 50 -1 -1 4.000 0 0 -1 0 0 2
	 6000 4050 6000 4500
2 1 0 1 0 7 50 -1 -1 4.000 0 0 -1 0 0 2
	 675 1200 1125 1200
2 1 0 1 0 7 50 -1 -1 4.000 0 0 -1 0 0 2
	 675 2400 1125 2400
2 1 0 1 0 7 50 -1 -1 4.000 0 0 -1 0 0 2
	 675 3600 1125 3600
2 1 0 1 0 7 50 -1 -1 4.000 0 0 -1 1 1 2
	1 1 1.00 60.00 120.00
	1 1 1.00 60.00 120.00
	 1200 4425 6000 4425
2 1 0 1 0 7 50 -1 -1 4.000 0 0 -1 1 1 2
	1 1 1.00 60.00 120.00
	1 1 1.00 60.00 120.00
	 825 3600 825 2400
2 1 0 1 0 7 50 -1 -1 4.000 0 0 -1 1 1 2
	1 1 1.00 60.00 120.00
	1 1 1.00 60.00 120.00
	 825 2400 825 1200
2 1 0 1 0 7 50 -1 -1 4.000 0 0 -1 0 0 2
	 1200 675 1050 900
2 1 0 1 0 7 50 -1 -1 4.000 0 0 -1 0 0 2
	 1200 825 1050 1050
2 1 0 1 0 7 50 -1 -1 4.000 0 0 -1 0 0 2
	 1200 975 1050 1200
2 1 0 1 0 7 50 -1 -1 4.000 0 0 -1 0 0 2
	 1200 2100 1050 2325
2 1 0 1 0 7 50 -1 -1 4.000 0 0 -1 0 0 2
	 1200 2250 1050 2475
2 1 0 1 0 7 50 -1 -1 4.000 0 0 -1 0 0 2
	 1200 2400 1050 2625
2 1 0 1 0 7 50 -1 -1 4.000 0 0 -1 0 0 2
	 1200 3300 1050 3525
2 1 0 1 0 7 50 -1 -1 4.000 0 0 -1 0 0 2
	 1200 3450 1050 3675
2 1 0 1 0 7 50 -1 -1 4.000 0 0 -1 0 0 2
	 1200 3600 1050 3825
2 1 0 1 0 7 50 -1 -1 0.000 0 0 -1 0 0 2
	 7800 1200 12600 1200
2 1 0 1 0 7 50 -1 -1 0.000 0 0 -1 0 0 2
	 7818 2396 12618 1196
2 1 0 1 0 7 50 -1 -1 0.000 0 0 -1 0 0 2
	 7800 3600 12600 1200
2 1 0 1 0 7 50 -1 -1 4.000 0 0 -1 0 0 2
	 7800 1200 7800 3600
2 1 0 3 0 7 50 -1 -1 8.000 0 0 -1 0 0 2
	 8400 2925 8930 2395
2 1 0 3 0 7 50 -1 -1 8.000 0 0 -1 0 0 2
	 8400 2400 8930 2930
2 1 0 3 0 7 50 -1 -1 8.000 0 0 -1 0 0 2
	 8325 2025 8855 1495
2 1 0 3 0 7 50 -1 -1 8.000 0 0 -1 0 0 2
	 8325 1500 8855 2030
4 0 0 50 -1 0 24 0.0000 4 270 210 1275 3900 1\001
4 0 0 50 -1 0 24 0.0000 4 270 210 1275 2700 2\001
4 0 0 50 -1 0 24 0.0000 4 270 210 1275 1500 3\001
4 0 0 50 -1 0 24 0.0000 4 270 210 5775 1575 4\001
4 0 0 50 -1 0 24 0.0000 4 270 630 6075 1050 100\001
4 0 0 50 -1 0 24 0.0000 4 270 420 3225 4350 10\001
4 0 0 50 -1 0 24 1.5708 4 270 210 750 1875 2\001
4 0 0 50 -1 0 24 1.5708 4 270 210 750 3150 2\001
4 0 0 50 -1 0 24 0.7854 4 270 555 8925 1800 -33\001
4 0 0 50 -1 0 24 0.7854 4 270 555 9075 2700 -33\001
4 0 0 50 -1 0 24 5.4978 4 270 420 7822 4328 33\001
4 0 0 50 -1 0 24 5.4978 4 270 420 8625 3150 33\001
4 0 0 50 -1 0 24 5.4978 4 270 420 7875 1500 33\001
