#FIG 3.2
Landscape
Center
Inches
Letter  
100.00
Single
-2
1200 2
6 3450 1500 3750 1800
2 3 0 1 0 7 100 0 -1 0.000 0 0 -1 0 0 4
	 3750 1575 3600 1800 3450 1575 3750 1575
2 1 0 1 0 7 100 0 -1 0.000 0 0 -1 0 0 2
	 3750 1500 3450 1500
-6
2 1 0 3 0 7 100 0 -1 0.000 0 0 -1 0 0 2
	 1200 3600 3600 1800
2 3 0 1 0 7 100 0 -1 0.000 0 0 -1 0 0 4
	 1050 3825 1200 3600 1350 3825 1050 3825
2 1 0 2 0 7 100 0 -1 0.000 0 0 -1 1 0 2
	1 1 1.00 60.00 120.00
	 2400 1800 3525 1800
4 0 0 100 0 0 32 0.0000 4 330 570 2775 1725 0.5\001
4 0 0 100 0 1 32 0.0000 4 330 225 975 3525 1\001
4 0 0 100 0 1 32 0.0000 4 330 225 3600 2175 3\001
