#FIG 3.2
Landscape
Center
Inches
Letter  
100.00
Single
-2
1200 2
6 3600 3525 4950 3675
2 1 0 2 0 7 50 0 -1 6.000 0 0 -1 1 0 2
	1 1 2.00 120.00 240.00
	 3675 3600 4575 3600
2 1 0 2 0 7 50 0 -1 6.000 0 0 -1 1 0 2
	1 1 2.00 120.00 240.00
	 4575 3600 4875 3600
-6
6 4425 2775 5775 2925
2 1 0 2 0 7 50 0 -1 6.000 0 0 -1 1 0 2
	1 1 2.00 120.00 240.00
	 4500 2850 5400 2850
2 1 0 2 0 7 50 0 -1 6.000 0 0 -1 1 0 2
	1 1 2.00 120.00 240.00
	 5400 2850 5700 2850
-6
6 2775 3600 3600 4425
2 1 0 2 0 7 50 0 -1 6.000 0 0 -1 1 0 2
	1 1 2.00 120.00 240.00
	 2850 4350 3300 3900
2 1 0 2 0 7 50 0 -1 6.000 0 0 -1 1 0 2
	1 1 2.00 120.00 240.00
	 3300 3900 3525 3675
-6
6 4425 1950 5250 2775
2 1 0 2 0 7 50 0 -1 6.000 0 0 -1 1 0 2
	1 1 2.00 120.00 240.00
	 4500 2700 4950 2250
2 1 0 2 0 7 50 0 -1 6.000 0 0 -1 1 0 2
	1 1 2.00 120.00 240.00
	 4950 2250 5175 2025
-6
2 1 0 3 0 7 50 0 -1 8.000 0 0 -1 0 0 3
	 1200 3600 3600 3600 4350 2850
2 1 0 2 0 7 50 0 -1 6.000 0 0 -1 1 0 2
	1 1 2.00 120.00 240.00
	 3600 3675 3600 4800
2 1 0 3 0 7 50 0 -1 8.000 0 0 -1 0 0 3
	 6900 4650 9300 4650 10050 3900
2 1 0 2 0 7 50 0 -1 6.000 0 0 -1 0 0 3
	 6900 4650 6900 3600 9300 4650
2 1 0 1 0 7 50 0 -1 4.000 0 0 -1 0 0 2
	 9300 4650 9300 5025
2 1 0 1 0 7 50 0 -1 4.000 0 0 -1 0 0 2
	 9675 4275 9675 4725
2 1 0 3 0 7 50 0 -1 8.000 0 0 -1 0 0 3
	 6900 2700 9300 2700 10050 1950
2 1 0 1 0 7 50 0 -1 4.000 0 0 -1 0 0 4
	 6900 2700 6900 2325 9300 2325 9300 2700
2 1 0 1 0 7 50 0 -1 4.000 0 0 -1 0 0 3
	 9300 2325 10050 2550 10050 1950
3 0 1 1 0 7 50 0 -1 4.000 0 0 0 4
	 1200 3600 2025 3675 3000 3975 3600 4200
	 0.000 1.000 1.000 0.000
3 0 1 1 0 7 50 0 -1 4.000 0 0 0 4
	 3600 4200 3825 3900 4200 3225 4350 2850
	 0.000 1.000 1.000 0.000
3 0 0 1 0 7 50 0 -1 4.000 0 0 0 3
	 9300 5025 9675 4875 10050 3900
	 0.000 1.000 0.000
4 0 0 50 0 0 24 0.0000 4 255 630 4050 4050 5.90\001
4 0 0 50 0 0 24 0.0000 4 255 630 3750 4575 13.4\001
4 0 0 50 0 0 24 0.0000 4 255 450 4800 3225 7.5\001
4 0 0 50 0 0 24 0.0000 4 255 630 5100 2550 5.04\001
4 0 0 50 0 0 32 0.0000 4 330 225 1125 3525 1\001
4 0 0 50 0 0 32 0.0000 4 330 225 3375 3450 2\001
4 0 0 50 0 0 32 0.0000 4 330 225 4050 2925 3\001
4 0 0 50 0 0 24 0.0000 4 255 630 7125 3600 2.52\001
4 0 0 50 0 0 24 0.0000 4 255 630 9750 4950 0.87\001
4 0 0 50 0 0 24 0.0000 4 255 630 8625 5175 0.74\001
4 0 0 50 0 0 24 0.0000 4 255 630 6900 2250 0.63\001
4 0 0 50 0 0 24 0.0000 4 255 765 9825 2925 -1.37\001
4 0 0 50 0 0 32 0.0000 4 330 540 8325 3825 M:\001
4 0 0 50 0 0 32 0.0000 4 330 450 8250 2025 V:\001
4 0 0 50 0 0 24 0.0000 4 255 630 2325 4275 5.04\001
