#FIG 3.2  Produced by xfig version 3.2.5b
Landscape
Center
Metric
A4      
100.00
Single
-2
1200 2
5 1 0 1 0 7 50 -1 -1 4.000 0 1 1 0 2168.208 4658.349 2610 4725 2580 4485 2460 4320
	1 1 1.00 60.00 120.00
5 1 0 1 0 7 50 -1 -1 4.000 0 1 1 0 4897.500 4297.500 4440 4155 4440 4440 4590 4665
	1 1 1.00 60.00 120.00
5 1 0 1 0 7 50 -1 -1 4.000 0 1 1 0 2955.000 4657.500 3390 4725 3390 4590 3360 4485
	1 1 1.00 60.00 120.00
5 1 0 1 0 7 50 -1 -1 4.000 0 1 1 0 1774.062 4412.812 1995 4200 1725 4110 1500 4275
	1 1 1.00 60.00 120.00
5 1 0 1 0 7 50 -1 -1 4.000 0 1 1 0 5374.062 4037.812 5595 3825 5325 3735 5100 3900
	1 1 1.00 60.00 120.00
5 1 0 1 0 7 50 -1 -1 4.000 0 1 1 0 1834.062 7352.812 2055 7140 1785 7050 1560 7215
	1 1 1.00 60.00 120.00
5 1 0 1 0 7 50 -1 -1 4.000 0 1 1 0 5419.062 7337.812 5640 7125 5370 7035 5145 7200
	1 1 1.00 60.00 120.00
6 2295 4365 2505 4605
4 0 0 50 -1 32 16 0.0000 4 240 165 2295 4545 f\001
4 0 0 50 -1 1 14 0.0000 4 165 60 2445 4590 i\001
-6
6 3420 4485 3750 4725
4 0 0 50 -1 32 16 0.0000 4 195 195 3420 4620 y\001
4 0 0 50 -1 1 14 0.0000 4 210 180 3570 4680 i,j\001
-6
2 1 0 1 0 7 50 -1 -1 0.000 0 0 -1 0 0 2
	 5400 4500 5400 4950
2 1 0 2 0 7 50 -1 -1 0.000 0 0 -1 0 0 2
	 1800 4725 5400 4725
2 1 1 1 0 7 50 -1 -1 4.000 0 0 -1 0 0 2
	 1737 4512 1890 4935
2 1 1 1 0 7 50 -1 -1 4.000 0 0 -1 0 0 2
	 5286 3927 5475 4335
2 1 1 1 0 7 50 -1 -1 4.000 0 0 -1 0 0 2
	 1815 4725 3495 3705
2 1 1 1 0 7 50 -1 -1 4.000 0 0 -1 0 0 2
	 5400 4155 3690 5220
2 1 1 1 0 7 50 -1 -1 4.000 0 0 -1 0 0 2
	 5385 4155 3780 4155
2 1 3 2 0 7 50 -1 -1 6.000 0 0 -1 0 0 2
	 1815 4725 5385 4155
2 1 0 1 0 7 50 -1 -1 0.000 0 0 -1 0 0 2
	 1800 4500 1800 4950
2 1 0 1 0 7 50 -1 -1 4.000 0 0 -1 0 0 2
	 1800 5250 1800 5730
2 1 0 1 0 7 50 -1 -1 4.000 0 0 -1 0 0 2
	 5400 5250 5400 5730
2 1 0 1 0 7 50 -1 -1 4.000 0 0 -1 1 1 2
	1 1 1.00 60.00 120.00
	1 1 1.00 60.00 120.00
	 1815 5655 5400 5655
2 1 0 1 0 7 50 -1 -1 4.000 0 0 -1 1 0 2
	1 1 1.00 60.00 120.00
	 1800 3765 1800 3300
2 1 0 2 0 7 50 -1 -1 0.000 0 0 -1 0 0 2
	 1800 7515 5400 7515
2 1 0 1 0 7 50 -1 -1 4.000 0 0 -1 0 0 2
	 1800 7275 1800 7740
2 1 0 1 0 7 50 -1 -1 4.000 0 0 -1 0 0 2
	 5385 7230 5385 7695
2 1 0 1 0 7 50 -1 -1 4.000 0 0 -1 0 0 2
	 2040 7380 2040 7500
2 1 0 1 0 7 50 -1 -1 4.000 0 0 -1 0 0 2
	 2355 7380 2355 7500
2 1 0 1 0 7 50 -1 -1 4.000 0 0 -1 0 0 2
	 2700 7350 2700 7500
2 1 0 1 0 7 50 -1 -1 4.000 0 0 -1 0 0 2
	 3015 7290 3015 7500
2 1 0 1 0 7 50 -1 -1 4.000 0 0 -1 0 0 2
	 3345 7245 3345 7500
2 1 0 1 0 7 50 -1 -1 4.000 0 0 -1 0 0 2
	 3660 7200 3660 7485
2 1 0 1 0 7 50 -1 -1 4.000 0 0 -1 0 0 2
	 3975 7185 3975 7485
2 1 0 1 0 7 50 -1 -1 4.000 0 0 -1 0 0 2
	 4305 7215 4305 7500
2 1 0 1 0 7 50 -1 -1 4.000 0 0 -1 0 0 2
	 4650 7275 4650 7485
2 1 0 1 0 7 50 -1 -1 4.000 0 0 -1 0 0 2
	 5040 7350 5040 7500
2 1 0 1 0 7 50 -1 -1 4.000 0 0 -1 1 0 2
	1 1 1.00 60.00 120.00
	 5400 2910 5400 3375
3 0 1 2 0 7 50 -1 -1 6.000 0 0 0 6
	 1815 4725 2580 4260 3465 4365 4365 4575 5070 4380 5400 4140
	 0.000 1.000 1.000 1.000 1.000 0.000
3 0 0 1 0 7 50 -1 -1 4.000 0 0 0 5
	 1800 7395 2850 7350 3750 7140 4635 7245 5370 7425
	 0.000 1.000 1.000 1.000 0.000
4 0 0 50 -1 32 16 0.0000 4 240 165 4575 4620 f\001
4 0 0 50 -1 1 14 0.0000 4 210 60 4740 4650 j\001
4 0 0 50 -1 1 16 0.0000 4 240 75 5250 5055 j\001
4 0 0 50 -1 1 16 0.0000 4 195 75 1935 5070 i\001
4 0 0 50 -1 1 16 0.0000 4 195 75 3210 5505 l\001
4 0 0 50 -1 1 14 0.0000 4 210 180 3315 5550 i,j\001
4 0 0 50 -1 1 16 0.0000 4 195 240 1635 4050 M\001
4 0 0 50 -1 1 16 0.0000 4 195 165 1845 3645 V\001
4 0 0 50 -1 1 14 0.0000 4 210 180 1905 4095 i,j\001
4 0 0 50 -1 1 14 0.0000 4 210 180 1980 3705 i,j\001
4 0 0 50 -1 1 16 0.0000 4 195 240 5205 3660 M\001
4 0 0 50 -1 1 16 0.0000 4 195 165 4980 3135 V\001
4 0 0 50 -1 1 14 0.0000 4 210 180 5445 3720 j,i\001
4 0 0 50 -1 1 14 0.0000 4 210 180 5115 3195 j,i\001
4 0 0 50 -1 1 16 0.0000 4 195 240 1665 6945 M\001
4 0 0 50 -1 1 16 0.0000 4 195 240 5295 6915 M\001
4 0 0 50 -1 1 14 0.0000 4 210 180 1905 7020 i,j\001
4 0 0 50 -1 1 14 0.0000 4 210 180 5550 6960 j,i\001
4 0 0 50 -1 1 14 0.0000 4 210 60 1965 6795 f\001
4 0 0 50 -1 1 14 0.0000 4 210 60 5595 6750 f\001
